<?xml version="1.0" encoding="UTF-8"?>
<!DOCTYPE svg PUBLIC "-//W3C//DTD SVG 1.0//EN" "http://www.w3.org/TR/2001/REC-SVG-20010904/DTD/svg10.dtd">
<!-- Creator: CorelDRAW X8 -->
<svg xmlns="http://www.w3.org/2000/svg" xml:space="preserve" width="35px" height="20px" version="1.0" style="shape-rendering:geometricPrecision; text-rendering:geometricPrecision; image-rendering:optimizeQuality; fill-rule:evenodd; clip-rule:evenodd"
viewBox="0 0 3500 2000"
 xmlns:xlink="http://www.w3.org/1999/xlink">
 <defs>
  <style type="text/css">
   <![CDATA[
    .fil0 {fill:white;fill-rule:nonzero}
   ]]>
  </style>
 </defs>
 <g id="Layer_x0020_1">
  <metadata id="CorelCorpID_0Corel-Layer"/>
  <g id="_2186686695552">
   <path class="fil0" d="M1849 1503c24,0 36,-12 36,-28 0,-17 -13,-28 -37,-28l-36 0 0 56 37 0zm-4 -79c21,0 31,-10 31,-27 0,-16 -10,-24 -32,-24l-32 0 0 51 33 0zm-67 -75l73 0c36,0 60,16 60,46 0,17 -10,32 -26,39l0 0c22,5 34,22 34,42 0,33 -27,50 -65,50l-76 0 0 -177z"/>
   <path class="fil0" d="M2043 1345c24,0 50,8 67,26l-16 24c-12,-12 -31,-20 -49,-20 -36,0 -62,27 -62,63 0,36 26,63 63,63 19,0 41,-9 54,-24l14 25c-16,17 -43,29 -71,29 -56,0 -94,-40 -94,-93 0,-53 39,-93 94,-93z"/>
   <path class="fil0" d="M2237 1279l28 0 0 36 -28 0 0 -36zm-58 0l28 0 0 36 -28 0 0 -36zm87 139c-1,-30 -20,-46 -43,-46 -26,0 -47,17 -52,46l95 0zm-42 -73c50,0 76,38 76,83 0,5 0,10 -1,15l-129 0c2,38 29,58 61,58 19,0 38,-8 52,-20l14 24c-17,16 -44,26 -68,26 -56,0 -94,-41 -94,-93 0,-56 38,-93 89,-93z"/>
   <path class="fil0" d="M2429 1349l154 0 0 177 -34 0 0 -147 -87 0 0 147 -33 0 0 -177z"/>
   <path class="fil0" d="M2718 1501c28,0 51,-23 51,-63 0,-38 -20,-63 -50,-63 -26,0 -51,19 -51,64 0,31 18,62 50,62zm-82 -152l31 0 0 16c0,8 -1,14 -1,14l1 0c11,-22 33,-34 59,-34 48,0 78,38 78,93 0,56 -34,93 -80,93 -23,0 -43,-12 -55,-30l-1 0c0,0 1,6 1,15l0 80 -33 0 0 -247z"/>
   <path class="fil0" d="M2930 1501c33,0 60,-26 60,-63 0,-37 -27,-63 -60,-63 -34,0 -61,26 -61,63 0,37 27,63 61,63zm-1 -156c53,0 96,39 96,93 0,53 -43,93 -95,93 -53,0 -96,-40 -96,-93 0,-54 43,-93 95,-93z"/>
   <path class="fil0" d="M3059 1349l32 0 0 148 65 0 0 -148 33 0 0 148 66 0 0 -148 32 0 0 148 25 0 0 71 -31 0 0 -42 -222 0 0 -177z"/>
   <path class="fil0" d="M3466 1418c-1,-30 -20,-46 -43,-46 -26,0 -47,17 -52,46l95 0zm-42 -73c50,0 76,38 76,83 0,5 -1,10 -1,15l-129 0c2,38 29,58 61,58 19,0 38,-8 52,-20l14 24c-17,16 -44,26 -68,26 -56,0 -94,-41 -94,-93 0,-56 38,-93 89,-93z"/>
   <path class="fil0" d="M2166 1189c-4,4 -10,3 -14,-2l-40 -52c-35,-48 -81,-79 -166,-79 -160,0 -261,-115 -261,-298 0,-183 101,-299 261,-299 160,0 260,116 260,299 0,93 -33,188 -88,221 -10,5 -10,8 0,11 48,17 70,38 95,70l37 50c4,5 3,11 -2,15l-82 64zm-220 -250c79,0 126,-69 126,-181 0,-114 -47,-180 -126,-180 -78,0 -128,66 -128,180 0,112 50,181 128,181z"/>
   <path class="fil0" d="M2429 1037c0,6 -4,10 -11,10l-111 0c-7,0 -11,-4 -11,-10l0 -558c0,-7 4,-11 11,-11l111 0c7,0 11,4 11,11l0 558z"/>
   <path class="fil0" d="M3185 872c-15,56 -27,110 -38,166 0,6 -5,9 -11,9l-150 0c-6,0 -10,-3 -11,-9 -9,-48 -18,-91 -29,-136l-26 -106c-5,-21 -11,-56 -16,-84 -2,-12 -11,-12 -13,0 -5,28 -12,62 -16,84l-26 106c-10,45 -19,88 -29,136 -1,6 -5,9 -12,9l-149 0c-7,0 -11,-3 -12,-9 -10,-56 -22,-110 -37,-166l-101 -392c-2,-7 2,-12 9,-12l113 0c7,0 11,4 12,9l56 221c14,55 25,126 30,179 1,11 13,12 15,0 7,-52 20,-124 36,-179l59 -221c2,-5 6,-9 12,-9l93 0c6,0 10,4 11,9l61 221c15,55 28,127 36,179 1,12 13,11 14,0 4,-53 16,-124 30,-179l55 -221c2,-5 6,-9 13,-9l112 0c8,0 12,5 9,12l-100 392z"/>
   <path class="fil0" d="M3499 1037c0,6 -4,10 -11,10l-111 0c-7,0 -11,-4 -11,-10l0 -558c0,-7 4,-11 11,-11l111 0c7,0 11,4 11,11l0 558z"/>
   <path class="fil0" d="M1017 1307c-13,0 -25,5 -32,13 -18,22 -9,61 18,85 12,10 29,17 46,17 17,0 31,-7 40,-19 16,-21 7,-51 -23,-76 -15,-13 -32,-20 -49,-20zm150 -110c-13,-4 -23,-1 -28,8 -8,13 -2,40 13,63 15,24 28,36 38,36 3,0 7,-2 9,-4 6,-7 8,-21 5,-38 -2,-18 -13,-54 -37,-65zm296 536c14,17 -7,34 -23,21 -155,-138 -286,-177 -415,-182 -68,-3 -136,3 -208,10 -14,1 -28,2 -43,3 -6,1 -13,1 -19,2 -25,2 -50,4 -76,4 -122,0 -237,-30 -341,-89 -105,-59 -189,-141 -248,-244 -60,-104 -90,-218 -90,-339 0,-122 30,-237 90,-341 59,-104 142,-187 245,-247 103,-59 216,-90 335,-90 124,0 240,30 345,89 105,59 189,142 249,245 60,104 90,219 90,340 0,47 -4,93 -13,138 -1,6 -3,14 -5,23 -2,8 -4,15 -6,22l0 0c-13,38 -35,93 -77,163 -4,7 -7,2 -7,-2 -15,-103 -60,-182 -139,-232 -2,-1 -3,-2 -4,-3 -13,-8 -27,-15 -42,-21 -19,-9 -40,-16 -62,-22 -13,-4 -43,-2 -32,-13 4,-4 69,-5 144,-1 2,0 3,1 5,1 1,-16 2,-32 2,-49 0,-128 -43,-233 -130,-320 -88,-87 -190,-129 -313,-129 -126,0 -229,42 -313,129 -84,88 -125,192 -125,318 0,126 42,229 129,316 87,87 188,129 309,129 5,0 11,0 17,0 0,-1 0,-3 0,-4 -7,-89 -9,-163 9,-133 7,11 13,21 20,30 23,36 47,65 70,89 2,1 3,3 4,4 86,87 170,108 260,131 2,0 4,1 6,1 15,4 30,7 45,11 106,29 222,75 357,242z"/>
  </g>
 </g>
</svg>
