<?xml version="1.0" encoding="UTF-8"?>
<!DOCTYPE svg PUBLIC "-//W3C//DTD SVG 1.0//EN" "http://www.w3.org/TR/2001/REC-SVG-20010904/DTD/svg10.dtd">
<!-- Creator: CorelDRAW X8 -->
<svg xmlns="http://www.w3.org/2000/svg" xml:space="preserve" width="978px" height="2428px" version="1.0" style="shape-rendering:geometricPrecision; text-rendering:geometricPrecision; image-rendering:optimizeQuality; fill-rule:evenodd; clip-rule:evenodd"
viewBox="0 0 97800 242801"
 xmlns:xlink="http://www.w3.org/1999/xlink">
 <defs>
  <style type="text/css">
   <![CDATA[
    .str0 {stroke:#B2B3B3;stroke-width:590.553}
    .str2 {stroke:#D6D6D6;stroke-width:590.553}
    .str3 {stroke:#D6D6D6;stroke-width:590.553;stroke-linecap:round}
    .str1 {stroke:#D6D6D6;stroke-width:590.553;stroke-linecap:round;stroke-linejoin:round}
    .fil5 {fill:none}
    .fil4 {fill:#C5C6C6}
    .fil3 {fill:#B2B3B3}
    .fil1 {fill:#B2B3B3}
    .fil7 {fill:#898989}
    .fil6 {fill:#727271}
    .fil8 {fill:#D6D6D6}
    .fil2 {fill:#898989;fill-rule:nonzero}
    .fil0 {fill:#D6D6D6;fill-rule:nonzero}
   ]]>
  </style>
   <clipPath id="id0">
    <path d="M48900 229505c35304,0 44044,-14062 44044,-29062 0,-20312 -14322,-32305 -14322,-47734 0,-7266 1501,-9219 1501,-17422 0,-13711 -9509,-18125 -31223,-18125 -21713,0 -31223,4414 -31223,18125 0,8203 1501,10156 1501,17422 0,15429 -14321,27422 -14321,47734 0,15000 8739,29062 44043,29062z"/>
   </clipPath>
   <clipPath id="id1">
    <path d="M48900 158041c5857,0 10605,-4748 10605,-10605 0,-5858 -4748,-10606 -10605,-10606 -5857,0 -10605,4748 -10605,10606 0,5857 4748,10605 10605,10605z"/>
   </clipPath>
   <clipPath id="id2">
    <path d="M42455 137006l12890 0 -2362 -94376 -8166 0 -2362 94376z"/>
   </clipPath>
 </defs>
 <g id="Layer_x0020_1">
  <metadata id="CorelCorpID_0Corel-Layer"/>
  <path class="fil0" d="M59507 16196l2855 0 707 5764 -424 3457 424 3457 -453 3691 453 3692 -707 5764 -5355 0c-174,308 -338,672 -480,1102l1773 70846c7762,635 13611,2208 17761,5072 5174,3570 7606,8803 7606,16246 0,4409 -427,7157 -841,9822 -335,2162 -661,4260 -661,7600 0,6395 2932,12474 6065,18971 3982,8255 8257,17120 8257,28763 0,8463 -2512,16699 -10098,22897 -7192,5876 -18934,9708 -37489,9708 -18554,0 -30296,-3832 -37489,-9708 -7586,-6198 -10098,-14434 -10098,-22897 0,-11643 4275,-20508 8257,-28763 3133,-6497 6065,-12576 6065,-18971 0,-3340 -326,-5438 -661,-7600 -414,-2665 -840,-5413 -840,-9822 0,-7443 2431,-12676 7605,-16246 4150,-2864 9999,-4437 17761,-5072l1773 -70846c-142,-430 -306,-794 -480,-1102l-5355 0 -707 -5764 453 -3691 -453 -3692 424 -3457 -424 -3457 707 -5764 2855 0 -280 -4258 3778 0c52,0 867,-340 1738,-703 1712,-715 3551,-1483 5371,-1483 1820,0 3659,768 5371,1483 871,363 1686,703 1738,703l3777 0 -279 4258zm-16407 104623c-65811,3049 50570,-2342 0,0z"/>
  <path class="fil1" d="M60766 15015l2640 0c285,2315 570,4630 852,6945l-424 3457 424 3457 -452 3691 452 3692 -852 6945 -5655 0 -42 113 1741 69571c3519,334 6647,872 9403,1648 3075,865 5691,2029 7877,3538 2761,1905 4794,4262 6140,7141 1332,2851 1978,6185 1978,10074 0,4468 -436,7277 -859,9999l0 22 -3 -1c-163,1050 -323,2085 -444,3276 -118,1157 -196,2475 -196,4126 0,3054 704,6044 1784,9051 1076,2995 2546,6058 4071,9220l90 188c4040,8375 8377,17369 8377,29275 0,4371 -653,8695 -2292,12741 -1646,4064 -4283,7833 -8244,11069 -3716,3036 -8593,5540 -14918,7279 -6261,1722 -13939,2697 -23314,2697 -9375,0 -17053,-975 -23314,-2697 -6325,-1739 -11202,-4243 -14918,-7279 -3961,-3236 -6598,-7005 -8244,-11069 -1639,-4046 -2292,-8370 -2292,-12741 0,-11906 4338,-20900 8377,-29275l90 -188c1525,-3162 2995,-6225 4071,-9220 1080,-3007 1784,-5997 1784,-9051 0,-1651 -78,-2969 -196,-4126 -121,-1191 -281,-2226 -444,-3276l-3 1 0 -22c-423,-2722 -859,-5531 -859,-9999 0,-3889 646,-7223 1978,-10074 1346,-2879 3379,-5236 6140,-7141 2186,-1509 4803,-2672 7877,-3538 2757,-776 5884,-1314 9403,-1648l1741 -69571 -42 -113 -5656 0 -851 -6945 452 -3691 -452 -3692 424 -3457 -424 -3457 851 -6945 2641 0 -280 -4258 5037 0c178,0 519,-291 1268,-604l-1 -1 14 -6 1 2 4 -2c1819,-760 3772,-1575 5823,-1575 2051,0 4003,815 5821,1574l22 9c749,313 1087,603 1266,603l5036 0 -279 4258zm-1259 1181l2855 0 707 5764 -424 3457 424 3457 -453 3691 453 3692 -707 5764 -5355 0c-174,308 -338,672 -480,1102l1773 70846c7762,635 13611,2208 17761,5072 5174,3570 7606,8803 7606,16246 0,4409 -427,7157 -841,9822 -335,2162 -661,4260 -661,7600 0,6395 2932,12474 6065,18971 3982,8255 8257,17120 8257,28763 0,8463 -2512,16699 -10098,22897 -7192,5876 -18934,9708 -37489,9708 -18554,0 -30296,-3832 -37489,-9708 -7586,-6198 -10098,-14434 -10098,-22897 0,-11643 4275,-20508 8257,-28763 3133,-6497 6065,-12576 6065,-18971 0,-3340 -326,-5438 -661,-7600 -414,-2665 -840,-5413 -840,-9822 0,-7443 2431,-12676 7605,-16246 4150,-2864 9999,-4437 17761,-5072l1773 -70846c-142,-430 -306,-794 -480,-1102l-5355 0 -707 -5764 453 -3691 -453 -3692 424 -3457 -424 -3457 707 -5764 2855 0 -280 -4258 3778 0c52,0 867,-340 1738,-703 1712,-715 3551,-1483 5371,-1483 1820,0 3659,768 5371,1483 871,363 1686,703 1738,703l3777 0 -279 4258zm-16407 104623c-65811,3049 50570,-2342 0,0z"/>
  <path class="fil2" d="M39559 28284l18682 0 0 1181 -18682 0 0 -1181z"/>
  <path class="fil2" d="M39559 21370l18682 0 0 1181 -18682 0 0 -1181z"/>
  <path class="fil2" d="M39559 35666l18682 0 0 1182 -18682 0 0 -1182z"/>
  <path class="fil3" d="M48900 229505c35304,0 44044,-14062 44044,-29062 0,-20312 -14322,-32305 -14322,-47734 0,-7266 1501,-9219 1501,-17422 0,-13711 -9509,-18125 -31223,-18125 -21713,0 -31223,4414 -31223,18125 0,8203 1501,10156 1501,17422 0,15429 -14321,27422 -14321,47734 0,15000 8739,29062 44043,29062z"/>
  <g style="clip-path:url(#id0)">
   <g id="_2876493253648">
    <path id="1" class="fil4" d="M3173 194002c4526,-42184 57872,-2165 84152,-16601 0,0 15859,-83086 -50680,-83086 -66538,0 -46542,109288 -33472,99687z"/>
   </g>
  </g>
  <path class="fil5" d="M48900 229505c35304,0 44044,-14062 44044,-29062 0,-20312 -14322,-32305 -14322,-47734 0,-7266 1501,-9219 1501,-17422 0,-13711 -9509,-18125 -31223,-18125 -21713,0 -31223,4414 -31223,18125 0,8203 1501,10156 1501,17422 0,15429 -14321,27422 -14321,47734 0,15000 8739,29062 44043,29062z"/>
  <path class="fil6" d="M60541 175990l10009 0c3248,0 5905,-2657 5905,-5905 0,-16981 -11934,-32454 -18867,-32454l0 35407c0,1624 1329,2952 2953,2952z"/>
  <circle class="fil4 str0" cx="48900" cy="147436" r="13750"/>
  <path class="fil6" d="M48900 158041c5857,0 10605,-4748 10605,-10605 0,-5858 -4748,-10606 -10605,-10606 -5857,0 -10605,4748 -10605,10606 0,5857 4748,10605 10605,10605z"/>
  <g style="clip-path:url(#id1)">
   <g id="_2876493250320">
    <circle class="fil7" cx="59288" cy="157279" r="13750"/>
   </g>
  </g>
  <path class="fil5" d="M48900 158041c5857,0 10605,-4748 10605,-10605 0,-5858 -4748,-10606 -10605,-10606 -5857,0 -10605,4748 -10605,10606 0,5857 4748,10605 10605,10605z"/>
  <path class="fil6" d="M31341 178607l35118 0 0 6172c-9735,0 -13466,2032 -17559,2032 -4093,0 -7824,-2032 -17559,-2032l0 -6172z"/>
  <path class="fil7" d="M42455 137006l12890 0 -2362 -94376 -8166 0 -2362 94376z"/>
  <g style="clip-path:url(#id2)">
   <g id="_2876493235248">
    <rect class="fil8" x="44167" y="42630" width="9465" height="938"/>
    <path class="fil5 str0" d="M42318 50940l13164 0"/>
    <path class="fil5 str0" d="M42318 57854l13164 0"/>
    <path class="fil5 str0" d="M42318 64299l13164 0"/>
    <path class="fil5 str0" d="M42318 70471l13164 0"/>
    <path class="fil5 str0" d="M42318 76370l13164 0"/>
    <path class="fil5 str0" d="M42318 81878l13164 0"/>
    <path class="fil5 str0" d="M42318 86995l13164 0"/>
    <path class="fil5 str0" d="M42318 92073l13164 0"/>
    <path class="fil5 str0" d="M40145 96687l17510 0"/>
    <path class="fil5 str0" d="M40145 101214l17510 0"/>
    <path class="fil5 str0" d="M40145 105472l17510 0"/>
    <path class="fil5 str0" d="M40145 109417l17510 0"/>
    <path class="fil5 str0" d="M40145 113245l17510 0"/>
    <path class="fil5 str0" d="M40145 116799l17510 0"/>
    <path class="fil5 str0" d="M40145 120159l17510 0"/>
    <path class="fil5 str0" d="M40145 123323l17510 0"/>
    <path class="fil5 str0" d="M40145 126370l17510 0"/>
    <path class="fil5 str0" d="M40145 129221l17510 0"/>
    <path class="fil5 str0" d="M40145 131956l17510 0"/>
    <path class="fil5 str0" d="M40145 134456l17510 0"/>
   </g>
  </g>
  <path class="fil5" d="M42455 137006l12890 0 -2362 -94376 -8166 0 -2362 94376z"/>
  <path class="fil7" d="M52983 42630c619,-2311 1776,-3691 2636,-4453 -37,-7639 -117,-14970 390,-22695 -1601,0 -5000,-2186 -7109,-2186 -2109,0 -5508,2186 -7109,2186 507,7725 427,15056 390,22695 860,762 2017,2142 2636,4453l8166 0z"/>
  <g id="_2876493233520">
   <path class="fil7" d="M59501 28874l-273 -2221 -1974 0 -273 2221 273 2221 1974 0 273 -2221z"/>
   <path class="fil7" d="M40819 28874l-273 -2221 -1974 0 -273 2221 273 2221 1974 0 273 -2221z"/>
  </g>
  <g id="_2876493230960">
   <path class="fil7" d="M59501 21960l-273 -2221 -1974 0 -273 2221 273 2221 1974 0 273 -2221z"/>
   <path class="fil7" d="M40819 21960l-273 -2221 -1974 0 -273 2221 273 2221 1974 0 273 -2221z"/>
  </g>
  <g id="_2876493298736">
   <path class="fil7" d="M59501 36257l-273 -2221 -1974 0 -273 2221 273 2221 1974 0 273 -2221z"/>
   <path class="fil7" d="M40819 36257l-273 -2221 -1974 0 -273 2221 273 2221 1974 0 273 -2221z"/>
  </g>
  <path class="fil5 str1" d="M41087 179837l15626 0"/>
  <circle class="fil8 str2" cx="53138" cy="20345" r="1181"/>
  <circle class="fil8 str2" cx="44662" cy="20345" r="1181"/>
  <circle class="fil8 str2" cx="53138" cy="27312" r="1181"/>
  <circle class="fil8 str2" cx="44662" cy="27312" r="1181"/>
  <circle class="fil8 str2" cx="53138" cy="34694" r="1181"/>
  <circle class="fil8 str2" cx="44662" cy="34694" r="1181"/>
  <g id="_2876493295888">
   <circle class="fil8" cx="42728" cy="182494" r="840"/>
   <circle class="fil8" cx="45197" cy="182494" r="840"/>
   <circle class="fil8" cx="47666" cy="182494" r="840"/>
   <circle class="fil8" cx="50134" cy="182494" r="840"/>
   <circle class="fil8" cx="52603" cy="182494" r="840"/>
   <circle class="fil8" cx="55072" cy="182494" r="840"/>
  </g>
  <path class="fil5 str3" d="M45843 34694l-95 7936 -3020 139864"/>
  <path class="fil5 str3" d="M51957 34694l95 7936 3021 139864"/>
  <path class="fil5 str3" d="M45843 27312l1266 15318 -1912 139864"/>
  <path class="fil5 str3" d="M51957 27312l-1266 15318 1913 139864"/>
  <path class="fil5 str3" d="M45843 20345l2627 22285 -804 139864"/>
  <path class="fil5 str3" d="M51957 20345l-2627 22285 805 139864"/>
 </g>
</svg>
