<?xml version="1.0" encoding="UTF-8"?>
<!DOCTYPE svg PUBLIC "-//W3C//DTD SVG 1.0//EN" "http://www.w3.org/TR/2001/REC-SVG-20010904/DTD/svg10.dtd">
<!-- Creator: CorelDRAW X8 -->
<svg xmlns="http://www.w3.org/2000/svg" xml:space="preserve" width="978px" height="2428px" version="1.0" style="shape-rendering:geometricPrecision; text-rendering:geometricPrecision; image-rendering:optimizeQuality; fill-rule:evenodd; clip-rule:evenodd"
viewBox="0 0 97800 242801"
 xmlns:xlink="http://www.w3.org/1999/xlink">
 <defs>
  <style type="text/css">
   <![CDATA[
    .fil5 {fill:none}
    .fil3 {fill:#C5C6C6}
    .fil1 {fill:#B2B3B3}
    .fil4 {fill:#727271}
    .fil2 {fill:#5B5B5B}
    .fil0 {fill:#D6D6D6}
   ]]>
  </style>
   <clipPath id="id0">
    <path d="M92926 191150c0,-16719 -14483,-26016 -14483,-32578 0,-6563 5156,-10626 5156,-20938 0,-10313 -21160,-18128 -20937,-26250l2254 -82032c591,-21513 -32623,-21513 -32032,0l2254 82032c223,8122 -20937,15937 -20937,26250 0,10312 5156,14375 5156,20938 0,6562 -14483,15859 -14483,32578 0,51245 88052,51245 88052,0z"/>
   </clipPath>
 </defs>
 <g id="Layer_x0020_1">
  <metadata id="CorelCorpID_0Corel-Layer"/>
  <path class="fil0" d="M67857 29433l-2254 82032c-66,2380 4060,5708 8435,9237 6064,4892 12514,10094 12514,16932 0,6329 -1718,10422 -3242,14055 -1008,2403 -1914,4563 -1914,6883 0,1573 1890,4154 4214,7326 4468,6100 10268,14019 10268,25252 0,19913 -12276,32643 -27990,38200 -6006,2124 -12506,3186 -18988,3186 -6482,0 -12982,-1062 -18988,-3186 -15714,-5557 -27990,-18287 -27990,-38200 0,-11233 5800,-19152 10268,-25252 2324,-3172 4214,-5753 4214,-7326 0,-1865 -585,-3626 -1338,-5493 -887,-223 -1683,-685 -2317,-1315l-5 -5 -6 -6c-904,-910 -1463,-2154 -1463,-3518 0,-1061 338,-2051 913,-2868l29 -42c-202,-775 -381,-1587 -528,-2443 -275,-1600 -441,-3337 -441,-5248 0,-2153 661,-4181 1776,-6111 402,-696 864,-1377 1375,-2045 -751,-451 -1445,-904 -2047,-1348 -3440,-2534 -4664,-5060 -4488,-7835 157,-2481 1500,-4712 3340,-7210 448,-608 916,-1221 1403,-1859l2 -2 793 -1046 803 -1071c766,-1040 1510,-2113 2230,-3117l681 -929c1846,-2506 3584,-4456 5902,-5339 2598,-991 5371,-571 8804,1959l109 80 -381 -13868c-246,-171 -476,-362 -688,-573l-6 -6 -5 -6c-904,-909 -1463,-2153 -1463,-3518 0,-1346 541,-2572 1420,-3475 162,-167 336,-322 521,-465l-1165 -42376c-245,-171 -475,-363 -687,-573l-6 -6 -6 -6c-904,-909 -1462,-2153 -1462,-3518 0,-1346 541,-2572 1419,-3475 163,-167 337,-322 521,-465 -246,-8996 4537,-14841 10803,-17520 2566,-1098 5368,-1647 8154,-1647 2786,0 5587,549 8154,1647 6267,2679 11050,8525 10803,17522zm-43687 85912l0 0zm7473 -2153c-543,-333 -1090,-665 -1624,-981 -1057,-627 -1929,-1117 -2350,-1294 -184,-78 -772,716 -3502,4426l3 2 -81 104 -441 599 -441 598c-1774,2406 -2875,3898 -3275,4777 217,257 633,668 1167,1167l159 148c818,-675 1665,-1359 2504,-2036 3386,-2731 6625,-5344 7881,-7510z"/>
  <path class="fil1" d="M69033 29465l-2254 82032c-22,811 856,1970 2211,3325 1508,1509 3587,3188 5731,4917l55 45c6279,5065 12957,10452 12957,17850 0,6565 -1766,10775 -3334,14512 -497,1183 -968,2307 -1299,3366 -318,1022 -523,2029 -523,3060 0,544 404,1387 1056,2445 727,1181 1774,2610 2927,4185 2264,3089 4865,6640 6921,10885 2078,4290 3578,9246 3578,15063 0,9669 -2823,17703 -7510,24100 -5228,7134 -12761,12203 -21269,15212 -3047,1077 -6219,1887 -9452,2430 -3279,550 -6610,825 -9928,825 -3318,0 -6649,-275 -9928,-825 -3233,-543 -6405,-1353 -9452,-2430 -8508,-3009 -16041,-8078 -21269,-15212 -4687,-6397 -7510,-14431 -7510,-24100 0,-5817 1500,-10773 3578,-15063 2056,-4245 4657,-7796 6921,-10885 1153,-1575 2200,-3004 2927,-4185 652,-1058 1056,-1901 1056,-2445 0,-829 -130,-1637 -345,-2446 -182,-684 -424,-1377 -699,-2088 -324,-118 -637,-263 -936,-433 -485,-275 -930,-614 -1324,-1006l-5 0 -25 -30c-562,-569 -1015,-1243 -1324,-1987 -303,-728 -471,-1522 -471,-2347 0,-635 103,-1259 293,-1856 142,-447 332,-871 563,-1264 -64,-257 -121,-501 -171,-732 -90,-414 -174,-848 -253,-1303 -144,-841 -259,-1708 -337,-2604 -79,-907 -122,-1853 -122,-2842 0,-1191 183,-2349 520,-3476 331,-1106 813,-2180 1417,-3226 221,-383 451,-750 688,-1102l16 -24 -59 -38c-375,-247 -709,-478 -994,-687 -1865,-1374 -3141,-2767 -3937,-4211 -828,-1503 -1133,-3041 -1031,-4649 90,-1410 508,-2733 1159,-4046 623,-1256 1453,-2491 2408,-3786 455,-619 923,-1232 1410,-1870l8 -11 3 2 787 -1038 794 -1061 -1 -1c595,-807 1024,-1413 1445,-2008l0 -5 775 -1094 10 -9 681 -930c959,-1302 1897,-2466 2912,-3435 1065,-1016 2204,-1809 3520,-2310 1503,-573 3061,-737 4744,-391 1071,220 2182,647 3350,1309l-304 -11052c-116,-99 -235,-210 -356,-330l-5 0 -25 -30c-563,-570 -1016,-1243 -1325,-1987 -303,-729 -470,-1522 -470,-2348 0,-807 163,-1589 459,-2313 305,-747 748,-1419 1297,-1983 53,-55 111,-111 174,-170l-1134 -41262c-130,-110 -249,-219 -357,-326l-4 0 -26 -30c-562,-570 -1015,-1244 -1324,-1987 -303,-729 -470,-1522 -470,-2348 0,-807 163,-1589 458,-2313 305,-747 749,-1419 1298,-1983 55,-57 115,-115 180,-176 -22,-4242 1035,-7816 2823,-10716 2095,-3398 5181,-5850 8704,-7357 1341,-573 2750,-1006 4195,-1297 1470,-297 2955,-446 4420,-446 1465,0 2950,149 4420,446 1445,291 2854,724 4195,1297 3523,1507 6609,3960 8704,7358 1867,3028 2937,6790 2814,11281zm-52629 129107c0,-1865 -585,-3626 -1338,-5493 -887,-223 -1683,-685 -2317,-1315l-11 -11c-904,-910 -1463,-2154 -1463,-3518 0,-1061 338,-2051 913,-2868l29 -42c-202,-775 -381,-1587 -528,-2443 -275,-1600 -441,-3337 -441,-5248 0,-2153 661,-4181 1776,-6111 402,-696 864,-1377 1375,-2045 -751,-451 -1445,-904 -2047,-1348 -3440,-2534 -4664,-5060 -4488,-7835 157,-2481 1500,-4712 3340,-7210 448,-608 916,-1221 1403,-1859l795 -1048 803 -1071c766,-1040 1510,-2113 2230,-3117l681 -929c1846,-2506 3584,-4456 5902,-5339 2598,-991 5371,-571 8804,1959l109 80 -381 -13868c-246,-171 -476,-362 -688,-573l-11 -12c-904,-909 -1463,-2153 -1463,-3518 0,-1346 541,-2572 1420,-3475 162,-167 336,-322 521,-465l-1165 -42376c-245,-171 -475,-363 -687,-573l-12 -12c-904,-909 -1462,-2153 -1462,-3518 0,-1346 541,-2572 1419,-3475 163,-167 337,-322 521,-465 -246,-8996 4537,-14841 10803,-17520 2566,-1098 5368,-1647 8154,-1647 2786,0 5587,549 8154,1647 6267,2679 11050,8525 10803,17522l-2254 82032c-66,2380 4060,5708 8435,9237 6064,4892 12514,10094 12514,16932 0,6329 -1718,10422 -3242,14055 -1008,2403 -1914,4563 -1914,6883 0,1573 1890,4154 4214,7326 4468,6100 10268,14019 10268,25252 0,19913 -12276,32643 -27990,38200 -6006,2124 -12506,3186 -18988,3186 -6482,0 -12982,-1062 -18988,-3186 -15714,-5557 -27990,-18287 -27990,-38200 0,-11233 5800,-19152 10268,-25252 2324,-3172 4214,-5753 4214,-7326zm15239 -45380c-543,-333 -1090,-665 -1624,-981 -1057,-627 -1929,-1117 -2350,-1294 -184,-78 -772,716 -3502,4426l3 2 -81 104 -882 1197c-1774,2406 -2875,3898 -3275,4777 217,257 633,668 1167,1167l159 148c818,-675 1665,-1359 2504,-2036 3386,-2731 6625,-5344 7881,-7510zm-1683 357l-541 -323c-553,-328 -1030,-605 -1386,-802 -318,-176 -573,-311 -744,-389l129 100c203,115 420,250 382,299 -389,496 -1030,1361 -2023,2709l28 23 -784 1007 -1 -1c-217,294 -643,951 -864,1172 -1188,1611 -2066,2802 -2612,3638l1480 -1198c1671,-1348 3307,-2668 4684,-3921 898,-818 1673,-1595 2252,-2314zm-2671 -1514l-76 -34c-268,-113 -41,-4 205,134l-129 -100z"/>
  <path class="fil2" d="M18163 108651c-505,710 -1033,1453 -1582,2198 -554,753 -1104,1473 -1631,2162 -479,629 -939,1231 -1370,1816 -3085,4187 -4487,7243 514,10927 3744,2759 10744,5522 11972,5997l453 -615c-1182,-974 -7420,-6141 -8838,-7823 -1627,-1931 -788,-3069 3150,-8408l441 -599 441 -599c3933,-5344 4772,-6483 7098,-5501 2026,855 8809,5282 10091,6123l453 -615c-816,-1032 -5528,-6897 -9274,-9657 -5001,-3685 -7505,-1440 -10589,2746 -437,593 -874,1207 -1329,1848z"/>
  <circle class="fil3" cx="34380" cy="83790" r="2039"/>
  <circle class="fil3" cx="16268" cy="148235" r="2039"/>
  <circle class="fil3" cx="32995" cy="33371" r="2039"/>
  <path class="fil2" d="M92926 191150c0,-16719 -14483,-26016 -14483,-32578 0,-6563 5156,-10626 5156,-20938 0,-10313 -21160,-18128 -20937,-26250l2254 -82032c591,-21513 -32623,-21513 -32032,0l2254 82032c223,8122 -20937,15937 -20937,26250 0,10312 5156,14375 5156,20938 0,6562 -14483,15859 -14483,32578 0,51245 88052,51245 88052,0z"/>
  <g style="clip-path:url(#id0)">
   <g id="_2876375592848">
    <circle class="fil4" cx="48900" cy="80150" r="88951"/>
   </g>
  </g>
  <path class="fil5" d="M92926 191150c0,-16719 -14483,-26016 -14483,-32578 0,-6563 5156,-10626 5156,-20938 0,-10313 -21160,-18128 -20937,-26250l2254 -82032c591,-21513 -32623,-21513 -32032,0l2254 82032c223,8122 -20937,15937 -20937,26250 0,10312 5156,14375 5156,20938 0,6562 -14483,15859 -14483,32578 0,51245 88052,51245 88052,0z"/>
  <g id="_2876375586928">
   <path class="fil0" d="M64752 206057c0,-561 -455,-1017 -1017,-1017 -561,0 -1017,456 -1017,1017 0,562 456,1017 1017,1017 562,0 1017,-455 1017,-1017z"/>
   <path class="fil0" d="M66008 207747c0,0 -1437,0 -2175,0 -738,0 -1410,730 -1240,1294 169,564 891,2922 934,3020 44,97 522,1330 1870,1330l8771 -18c0,0 881,-54 863,-971 0,0 0,-269 -234,-701 0,0 -580,-1062 -611,-1132 -31,-70 -216,-647 575,-665l4925 0 -557 -1744c0,0 -4226,0 -4368,0 -296,0 -1764,-213 -2372,-970 -39,-47 -276,-411 161,-737 438,-326 504,-612 504,-612 0,0 155,-351 -378,-664 -36,-19 -946,-569 -988,-594 -42,-25 -162,-107 -144,-341 0,0 -36,-575 773,-486 0,0 -811,-2673 -935,-2893 -13,-35 -423,-1056 -1366,-1672 0,0 -270,-183 -251,-414 0,-42 35,-611 790,-449 0,0 -792,-2589 -862,-2732 -127,-309 -462,-1115 -1402,-1096 -278,-9 -765,66 -1115,467 -23,23 -1319,1781 -1330,1797 -131,154 -425,234 -737,-18 0,0 -288,-197 -270,-485 0,0 -10,-220 432,-557 45,-45 377,-295 413,-467 0,0 46,-145 -125,-324 -380,-437 -396,-665 -396,-665 0,0 -180,-629 539,-629 0,0 1369,0 1510,0 331,0 1343,-434 1294,-1420 0,0 -36,-342 -126,-665l-341 -1061c0,0 -401,-1331 -1258,-1797 0,0 -431,-221 -432,-539 0,0 -72,-558 773,-504l-503 -1509 -3649 0c0,0 -431,42 -431,-468 0,-502 395,-485 395,-485 0,0 7393,0 7549,0 213,0 872,-223 863,-953 0,0 -17,-2049 -1761,-2049 -131,0 -665,0 -665,0l179 521 630 0c0,0 424,-33 449,450 9,44 -8,520 -467,503l-9239 0c0,0 -432,36 -432,467 0,0 -36,396 504,701 539,306 952,414 952,827 0,0 58,492 -377,486l-467 0 503 1545c0,0 1715,0 1779,0 441,0 2635,332 2642,917 6,41 83,590 -467,611 0,0 -1880,1 -2067,0 -280,-14 -1112,202 -1025,899l126 629c0,0 4338,0 4476,0 138,0 798,49 827,791 11,67 -18,791 -719,791l-2912 0c0,0 -521,36 -557,-485l-755 -19c0,0 359,1581 1689,2319 95,88 180,271 180,396 0,75 -22,431 -377,449 -84,-1 -486,0 -486,0l863 2606c0,0 324,1025 1366,1025 0,0 720,0 1061,-450l1366 -1815c0,0 221,-312 593,-162 64,20 493,233 503,665 10,84 0,360 -413,522 0,0 -539,143 -378,611 0,0 306,873 324,934 18,61 108,576 -503,576 0,0 -1864,0 -2014,0 -149,0 -1001,185 -970,898 0,0 36,414 198,773l880 0c0,0 -71,-485 557,-485l3038 0c0,0 759,-23 773,773 -7,663 -642,773 -719,773 -430,6 -9688,-18 -9688,-18l611 1581 6633 -18c0,0 2154,96 2983,702 240,176 240,789 -287,844l-3415 0 485 1546c0,0 1152,0 1384,0 231,0 2978,215 2938,1004 3,100 -108,312 -579,315l-3346 -10 538 1513c0,0 1840,15 1941,18 591,47 3253,-37 3253,1726 0,0 18,431 -503,431l-7441 0c0,0 -841,-49 -1133,-701 0,0 -238,-668 -287,-809 -50,-141 0,-683 593,-683l1887 0 -593 -1905z"/>
   <path class="fil0" d="M60644 182887l0 -120c0,-102 -32,-137 -98,-137 -66,0 -88,42 -88,144l0 113 186 0zm408 0l0 139 -702 0 0 -266c0,-176 56,-273 208,-273 129,0 180,78 188,170l306 -170 0 155 -299 157 0 88 299 0zm-846 -112c0,268 207,477 496,477 289,0 496,-209 496,-477 0,-264 -207,-477 -496,-477 -289,0 -496,213 -496,477zm496 643c-381,0 -628,-303 -628,-643 0,-340 247,-643 628,-643 383,0 628,303 628,643 0,340 -245,643 -628,643z"/>
  </g>
 </g>
</svg>
