<?xml version="1.0" encoding="UTF-8"?>
<!DOCTYPE svg PUBLIC "-//W3C//DTD SVG 1.0//EN" "http://www.w3.org/TR/2001/REC-SVG-20010904/DTD/svg10.dtd">
<!-- Creator: CorelDRAW X8 -->
<svg xmlns="http://www.w3.org/2000/svg" xml:space="preserve" width="27px" height="50px" version="1.0" style="shape-rendering:geometricPrecision; text-rendering:geometricPrecision; image-rendering:optimizeQuality; fill-rule:evenodd; clip-rule:evenodd"
viewBox="0 0 2700 5000"
 xmlns:xlink="http://www.w3.org/1999/xlink">
 <defs>
  <style type="text/css">
   <![CDATA[
    .fil0 {fill:#CCCCCC;fill-rule:nonzero}
   ]]>
  </style>
 </defs>
 <g id="Layer_x0020_1">
  <metadata id="CorelCorpID_0Corel-Layer"/>
  <path class="fil0" d="M115878 14317c64,65 64,170 0,235 -65,64 -170,64 -235,0l-2334 -2335c-65,-65 -65,-170 0,-234l2334 -2335c65,-65 170,-65 235,0 64,64 64,169 0,234l-2218 2218 2218 2217z"/>
  <path class="fil0" d="M300 4952c-65,64 -170,64 -234,0 -65,-65 -65,-170 0,-234l2217 -2218 -2217 -2218c-65,-64 -65,-169 0,-234 64,-64 169,-64 234,0l2334 2335c65,65 65,170 0,234l-2334 2335z"/>
 </g>
</svg>
