<?xml version="1.0" encoding="UTF-8"?>
<!DOCTYPE svg PUBLIC "-//W3C//DTD SVG 1.0//EN" "http://www.w3.org/TR/2001/REC-SVG-20010904/DTD/svg10.dtd">
<!-- Creator: CorelDRAW X8 -->
<svg xmlns="http://www.w3.org/2000/svg" xml:space="preserve" width="440px" height="440px" version="1.0" style="shape-rendering:geometricPrecision; text-rendering:geometricPrecision; image-rendering:optimizeQuality; fill-rule:evenodd; clip-rule:evenodd"
viewBox="0 0 44000 44000"
 xmlns:xlink="http://www.w3.org/1999/xlink">
 <defs>
  <style type="text/css">
   <![CDATA[
    .str0 {stroke:gray;stroke-width:295.277;stroke-linecap:round;stroke-linejoin:round}
    .fil0 {fill:none}
    .fil6 {fill:#4F4F4E}
    .fil3 {fill:#434242}
    .fil1 {fill:#2B2A29}
    .fil2 {fill:#CCCCCC}
    .fil4 {fill:#DEA020}
    .fil5 {fill:#F7B124}
   ]]>
  </style>
     <clipPath id="id0">
      <path d="M25355 37892l-5454 0c-488,0 -1045,-1366 -1268,-2196l-7356 -27392c-222,-831 -780,-2196 -1268,-2196l5454 0c488,0 1045,1365 1268,2196l7356 27392c222,830 780,2196 1268,2196z"/>
     </clipPath>
     <clipPath id="id1">
      <path d="M2683 30912l5088 1364 6423 -23972c223,-831 780,-2196 1269,-2196l-5454 0c-488,0 -1046,1365 -1268,2196l-6058 22608z"/>
     </clipPath>
     <clipPath id="id2">
      <path d="M19901 37892l5454 0c488,0 1046,-1366 1268,-2196l891 -3315 -5454 0 -890 3315c-223,830 -781,2196 -1269,2196z"/>
     </clipPath>
     <clipPath id="id3">
      <path d="M31255 18417l-4107 15327c-902,3365 -5990,2002 -5088,-1363l4106 -15327c902,-3365 5990,-2001 5089,1363z"/>
     </clipPath>
 </defs>
 <g id="Layer_x0020_1">
  <metadata id="CorelCorpID_0Corel-Layer"/>
  <g id="_2186243232320">
   <path class="fil0 str0" d="M2288 39144l0 0zm28515 -34808l2726 0c872,0 1460,481 1856,1167 235,407 396,901 488,1246l7780 29034c379,1413 -176,2546 -1091,3232 -335,251 -710,433 -1096,536 -393,105 -807,138 -1211,89 -1137,-137 -2185,-843 -2565,-2262l-4842 -18070 -4515 16844c-158,589 -460,1410 -816,2026l-74 117c-498,806 -1185,1369 -2088,1369l-5454 0c-951,0 -1660,-618 -2162,-1486l-64 -121c-330,-604 -605,-1358 -752,-1905l-4184 -15581 -3765 14053c-327,1218 -963,2300 -1821,3158 -857,857 -1939,1494 -3157,1820 -632,169 -1276,-27 -1709,-457 -887,-887 -1505,-1981 -1820,-3157 -315,-1173 -326,-2427 0,-3640l6564 -24501c158,-588 460,-1409 816,-2025 501,-868 1211,-1486 2162,-1486l5454 0c952,0 1660,618 2161,1486l65 121c330,604 605,1358 751,1904l4186 15585 1831 -6835c224,-834 625,-1505 1139,-2022 290,-292 613,-530 958,-715l1905 -7111c91,-339 250,-827 488,-1239l3 -6 -3 -1c396,-686 985,-1167 1856,-1167z"/>
   <g>
    <path class="fil1" d="M34164 7206l7779 29033c451,1682 -2093,2364 -2544,682l-7962 -29715 0 0c-112,-415 -342,-1098 -634,-1098l2726 0c293,0 523,683 635,1098z"/>
    <path class="fil2" d="M40545 36775c177,48 358,-57 405,-233 48,-177 -57,-358 -233,-405 -177,-47 -358,57 -405,234 -47,176 57,357 233,404z"/>
    <path class="fil2" d="M38411 28808c176,47 357,-57 405,-233 47,-177 -58,-358 -234,-405 -177,-48 -358,57 -405,233 -47,177 57,358 234,405z"/>
    <path class="fil2" d="M36276 20841c176,47 358,-57 405,-234 47,-176 -58,-357 -234,-405 -176,-47 -358,58 -405,234 -47,177 58,358 234,405z"/>
    <path class="fil3" d="M25355 37892l-5454 0c-488,0 -1045,-1366 -1268,-2196l-7356 -27392c-222,-831 -780,-2196 -1268,-2196l5454 0c488,0 1045,1365 1268,2196l7356 27392c222,830 780,2196 1268,2196z"/>
    <g style="clip-path:url(#id0)">
     <g>
      <path id="1" class="fil1" d="M12737 13742l4300 -4300 -306 -1138c-223,-831 -780,-2196 -1268,-2196 -489,0 -1046,1365 -1269,2196l-1457 5438z"/>
      <path class="fil1" d="M22627 30258l-4300 4300 306 1138c223,830 780,2196 1268,2196 488,0 1046,-1366 1269,-2196l1457 -5438z"/>
      <rect class="fil1" transform="matrix(0.50758 -0.136006 6.5363 24.3938 10357.6 -2253.43)" width="3036" height="2005"/>
     </g>
    </g>
    <path class="fil0" d="M25355 37892l-5454 0c-488,0 -1045,-1366 -1268,-2196l-7356 -27392c-222,-831 -780,-2196 -1268,-2196l5454 0c488,0 1045,1365 1268,2196l7356 27392c222,830 780,2196 1268,2196z"/>
    <path class="fil4" d="M2683 30912l5088 1364 6423 -23972c223,-831 780,-2196 1269,-2196l-5454 0c-488,0 -1046,1365 -1268,2196l-6058 22608z"/>
    <g style="clip-path:url(#id1)">
     <g>
      <path id="1" class="fil5" d="M-44 30912l5088 1364 6423 -23972c223,-831 780,-2196 1269,-2196l-5454 0c-488,0 -1046,1365 -1268,2196l-6058 22608z"/>
     </g>
    </g>
    <path class="fil0" d="M2683 30912l5088 1364 6423 -23972c223,-831 780,-2196 1269,-2196l-5454 0c-488,0 -1046,1365 -1268,2196l-6058 22608z"/>
    <path class="fil4" d="M19901 37892l5454 0c488,0 1046,-1366 1268,-2196l891 -3315 -5454 0 -890 3315c-223,830 -781,2196 -1269,2196z"/>
    <g style="clip-path:url(#id2)">
     <g>
      <path id="1" class="fil5" d="M17174 37892l5454 0c488,0 1046,-1366 1268,-2196l890 -3315 -5453 0 -890 3315c-223,830 -780,2196 -1269,2196z"/>
     </g>
    </g>
    <path class="fil0" d="M19901 37892l5454 0c488,0 1046,-1366 1268,-2196l891 -3315 -5454 0 -890 3315c-223,830 -781,2196 -1269,2196z"/>
    <path class="fil3" d="M31255 18417l-4107 15327c-902,3365 -5990,2002 -5088,-1363l4106 -15327c902,-3365 5990,-2001 5089,1363z"/>
    <g style="clip-path:url(#id3)">
     <g>
      <polygon id="1" class="fil1" points="29839,18612 27295,17931 27295,14337 31636,15500 "/>
     </g>
    </g>
    <path class="fil0" d="M31255 18417l-4107 15327c-902,3365 -5990,2002 -5088,-1363l4106 -15327c902,-3365 5990,-2001 5089,1363z"/>
    <path class="fil3" d="M27295 17931l2544 681 3056 -11406c112,-416 342,-1098 635,-1098l-2727 0c-293,0 -523,682 -635,1098l-2873 10725z"/>
    <polygon class="fil6" points="26645,20356 29189,21038 28478,23689 25934,23008 "/>
    <path class="fil1" d="M25524 24918l2355 631c52,14 83,68 69,120l-38 143c-14,51 -68,82 -120,69l-2355 -632c-52,-14 -83,-67 -69,-119l38 -143c14,-52 68,-83 120,-69z"/>
    <polygon class="fil6" points="24836,27109 27380,27791 26669,30442 24125,29760 "/>
    <path class="fil1" d="M2176 32804c-487,1818 33,3758 1363,5088 1818,-487 3238,-1906 3725,-3724l507 -1892c-893,-239 -1708,-710 -2361,-1363 -894,239 -1834,239 -2727,0l-507 1891z"/>
    <path class="fil2" d="M3839 36775c176,48 357,-57 404,-233 48,-177 -57,-358 -233,-405 -177,-47 -358,57 -405,234 -47,176 57,357 234,404z"/>
    <polygon class="fil1" points="24480,28435 27024,29116 26669,30442 24125,29760 "/>
    <polygon class="fil1" points="26290,21682 28834,22364 28478,23689 25934,23008 "/>
   </g>
  </g>
 </g>
</svg>
