<?xml version="1.0" encoding="UTF-8"?>
<!DOCTYPE svg PUBLIC "-//W3C//DTD SVG 1.0//EN" "http://www.w3.org/TR/2001/REC-SVG-20010904/DTD/svg10.dtd">
<!-- Creator: CorelDRAW X8 -->
<svg xmlns="http://www.w3.org/2000/svg" xml:space="preserve" width="440px" height="440px" version="1.0" style="shape-rendering:geometricPrecision; text-rendering:geometricPrecision; image-rendering:optimizeQuality; fill-rule:evenodd; clip-rule:evenodd"
viewBox="0 0 44000 44000"
 xmlns:xlink="http://www.w3.org/1999/xlink">
 <defs>
  <style type="text/css">
   <![CDATA[
    .str0 {stroke:gray;stroke-width:295.277;stroke-linecap:round;stroke-linejoin:round}
    .fil0 {fill:none}
    .fil9 {fill:#4F4F4E}
    .fil8 {fill:#434242}
    .fil6 {fill:#2B2A29}
    .fil10 {fill:black}
    .fil1 {fill:#785611}
    .fil3 {fill:#C48C1C}
    .fil7 {fill:#CCCCCC}
    .fil2 {fill:#DEA020}
    .fil4 {fill:#F7B124}
    .fil13 {fill:white}
    .fil12 {fill:white;fill-rule:nonzero}
    .fil11 {fill:white;fill-rule:nonzero}
    .fil5 {fill:#2B2A29;fill-opacity:0.200000}
    .fil14 {fill:#F7B124;fill-opacity:0.200000}
   ]]>
  </style>
     <clipPath id="id0">
      <path d="M22000 40685c-6688,0 -12044,-2634 -12044,-17012 0,-9194 -385,-21673 12044,-21673 12429,0 12044,12479 12044,21673 0,14378 -5356,17012 -12044,17012z"/>
     </clipPath>
      <clipPath id="id1">
       <path d="M22000 23673c-6050,0 -11009,-1208 -11900,-7400 491,-7339 2635,-14273 11900,-14273 9265,0 11409,6934 11900,14273 -891,6192 -5850,7400 -11900,7400z"/>
      </clipPath>
      <clipPath id="id2">
       <path d="M22000 40685c-6688,0 -12044,-2634 -12044,-17012 0,-9194 -385,-21673 12044,-21673 12429,0 12044,12479 12044,21673 0,14378 -5356,17012 -12044,17012z"/>
      </clipPath>
        <clipPath id="id3">
        </clipPath>
        <clipPath id="id4">
         <path d="M22000 40685c-6688,0 -12044,-2634 -12044,-17012 0,-9194 -385,-21673 12044,-21673 12429,0 12044,12479 12044,21673 0,14378 -5356,17012 -12044,17012z"/>
        </clipPath>
        <clipPath id="id5">
        </clipPath>
        <clipPath id="id6">
         <path d="M22000 40685c-6688,0 -12044,-2634 -12044,-17012 0,-9194 -385,-21673 12044,-21673 12429,0 12044,12479 12044,21673 0,14378 -5356,17012 -12044,17012z"/>
        </clipPath>
        <clipPath id="id7">
        </clipPath>
        <clipPath id="id8">
         <path d="M22000 40685c-6688,0 -12044,-2634 -12044,-17012 0,-9194 -385,-21673 12044,-21673 12429,0 12044,12479 12044,21673 0,14378 -5356,17012 -12044,17012z"/>
        </clipPath>
        <clipPath id="id9">
        </clipPath>
        <clipPath id="id10">
         <path d="M22000 40685c-6688,0 -12044,-2634 -12044,-17012 0,-9194 -385,-21673 12044,-21673 12429,0 12044,12479 12044,21673 0,14378 -5356,17012 -12044,17012z"/>
        </clipPath>
 </defs>
 <g id="Layer_x0020_1">
  <metadata id="CorelCorpID_0Corel-Layer"/>
  <g id="_2186597822272">
   <path class="fil0 str0" d="M22000 228c13836,0 13821,12766 13809,22638l-1 807 7 0c0,5329 -723,9177 -1977,11948 -1294,2858 -3138,4597 -5344,5618 -789,754 -1744,1372 -2816,1810 -1133,464 -2380,723 -3678,723 -1298,0 -2545,-259 -3678,-723 -1072,-438 -2027,-1056 -2816,-1810 -2206,-1021 -4050,-2760 -5344,-5618 -1254,-2771 -1977,-6619 -1977,-11948l7 0 -1 -807c-12,-9872 -27,-22638 13809,-22638z"/>
   <g>
    <path class="fil1" d="M22000 42000c3959,0 7169,-2830 7169,-6320 0,-3491 -3210,-6320 -7169,-6320 -3959,0 -7169,2829 -7169,6320 0,3490 3210,6320 7169,6320z"/>
    <g>
    </g>
    <g style="clip-path:url(#id0)">
     <g>
      <rect class="fil2" x="5172" y="14455" width="33655" height="29600"/>
      <path class="fil3" d="M22000 33497c-3263,0 -7989,-631 -7989,-3386 0,-2755 0,-14606 0,-18165 0,-3558 5737,-4074 7989,-4074 2252,0 7989,516 7989,4074 0,3559 0,15410 0,18165 0,2755 -4726,3386 -7989,3386z"/>
      <path class="fil4" d="M22000 23673c-6688,0 -12044,-1476 -12044,-9531 0,-5151 -385,-12142 12044,-12142 12429,0 12044,6991 12044,12142 0,8055 -5356,9531 -12044,9531z"/>
     </g>
     <g style="clip-path:url(#id1)">
      <g>
       <path id="1" class="fil2" d="M22000 33497c-3263,0 -7989,-631 -7989,-3386 0,-2755 0,-14606 0,-18165 0,-3558 5737,-4074 7989,-4074 2252,0 7989,516 7989,4074 0,3559 0,15410 0,18165 0,2755 -4726,3386 -7989,3386z"/>
      </g>
     </g>
     <g style="clip-path:url(#id2)">
      <path class="fil0" d="M22000 23673c-6688,0 -12044,-1476 -12044,-9531 0,-5151 -385,-12142 12044,-12142 12429,0 12044,6991 12044,12142 0,8055 -5356,9531 -12044,9531z"/>
      <path class="fil5" d="M15677 11230l12399 0c834,0 1516,-682 1516,-1517l0 -1959c0,-1391 -1137,-2528 -2528,-2528l-10376 0c-1390,0 -2528,1137 -2528,2528l0 1959c0,835 683,1517 1517,1517z"/>
      <path class="fil5" d="M16688 37459l10376 0c1391,0 2528,-1137 2528,-2528l0 -1959c0,-835 -682,-1517 -1516,-1517l-12399 0c-834,0 -1517,682 -1517,1517l0 1959c0,1391 1138,2528 2528,2528z"/>
      <g>
       <path class="fil0 str0" d="M48204 44771l0 0zm28515 -34807l2727 0c871,0 1459,481 1855,1166 236,408 396,901 488,1247l7780 29033c379,1414 -176,2546 -1091,3233 -334,251 -710,433 -1096,536 -393,105 -807,137 -1211,89 -1136,-138 -2185,-843 -2565,-2263l-4842 -18069 -4515 16844c-157,588 -460,1409 -816,2026l-74 117c-498,806 -1185,1369 -2088,1369l-5453 0c-952,0 -1661,-618 -2162,-1486l-64 -122c-330,-604 -606,-1357 -752,-1904l-4184 -15582 -3766 14054c-326,1218 -963,2300 -1820,3157 -858,858 -1940,1494 -3158,1820 -632,169 -1276,-27 -1709,-456 -887,-888 -1505,-1981 -1820,-3158 -314,-1172 -325,-2426 0,-3640l6564 -24500c158,-588 461,-1409 816,-2026 502,-868 1211,-1485 2162,-1485l5454 0c952,0 1661,618 2162,1485l64 122c330,604 605,1357 752,1904l4185 15585 1831 -6835c224,-835 626,-1505 1139,-2022 291,-292 614,-530 958,-716l1905 -7110c91,-340 250,-827 489,-1240l3 -5 -3 -2c396,-685 984,-1166 1855,-1166z"/>
       <g>
        <path class="fil6" d="M80080 12833l7780 29034c450,1682 -2094,2364 -2545,682l-7962 -29716 0 0c-111,-415 -341,-1098 -634,-1098l2727 0c293,0 523,683 634,1098z"/>
        <circle class="fil7" transform="matrix(0.943301 0.252756 -0.252757 0.943299 86547.4 42083.7)" r="339"/>
        <circle class="fil7" transform="matrix(0.943301 0.252756 -0.252757 0.943299 84412.6 34116.5)" r="339"/>
        <circle class="fil7" transform="matrix(0.943301 0.252756 -0.252757 0.943299 82277.8 26149.4)" r="339"/>
        <path class="fil8" d="M71271 43520l-5453 0c-489,0 -1046,-1366 -1269,-2197l-7355 -27391c-223,-831 -781,-2197 -1269,-2197l5454 0c488,0 1046,1366 1268,2197l7356 27391c223,831 780,2197 1268,2197z"/>
       </g>
       <g style="clip-path:url(#id3)">
        <g>
         <path id="1" class="fil6" d="M58654 19369l4299 -4299 -306 -1138c-222,-831 -780,-2197 -1268,-2197 -488,0 -1046,1366 -1268,2197l-1457 5437z"/>
         <path class="fil6" d="M68543 35886l-4299 4299 305 1138c223,831 780,2197 1269,2197 488,0 1045,-1366 1268,-2197l1457 -5437z"/>
         <rect class="fil6" transform="matrix(0.50758 -0.136006 6.5363 24.3938 56273.9 3374.19)" width="3036" height="2005"/>
        </g>
       </g>
       <g style="clip-path:url(#id4)">
        <path class="fil0" d="M71271 43520l-5453 0c-489,0 -1046,-1366 -1269,-2197l-7355 -27391c-223,-831 -781,-2197 -1269,-2197l5454 0c488,0 1046,1366 1268,2197l7356 27391c223,831 780,2197 1268,2197z"/>
        <path class="fil2" d="M48599 36540l5088 1363 6424 -23971c222,-831 780,-2197 1268,-2197l-5454 0c-488,0 -1045,1366 -1268,2197l-6058 22608z"/>
       </g>
       <g style="clip-path:url(#id5)">
        <g>
         <path id="1" class="fil4" d="M45872 36540l5088 1363 6424 -23971c222,-831 780,-2197 1268,-2197l-5454 0c-488,0 -1045,1366 -1268,2197l-6058 22608z"/>
        </g>
       </g>
       <g style="clip-path:url(#id6)">
        <path class="fil0" d="M48599 36540l5088 1363 6424 -23971c222,-831 780,-2197 1268,-2197l-5454 0c-488,0 -1045,1366 -1268,2197l-6058 22608z"/>
        <path class="fil2" d="M65818 43520l5453 0c489,0 1046,-1366 1269,-2197l890 -3314 -5454 0 -890 3314c-223,831 -780,2197 -1268,2197z"/>
       </g>
       <g style="clip-path:url(#id7)">
        <g>
         <path id="1" class="fil4" d="M63091 43520l5453 0c489,0 1046,-1366 1269,-2197l890 -3314 -5454 0 -890 3314c-223,831 -780,2197 -1268,2197z"/>
        </g>
       </g>
       <g style="clip-path:url(#id8)">
        <path class="fil0" d="M65818 43520l5453 0c489,0 1046,-1366 1269,-2197l890 -3314 -5454 0 -890 3314c-223,831 -780,2197 -1268,2197z"/>
        <path class="fil8" d="M77171 24045l-4107 15327c-901,3365 -5990,2001 -5088,-1363l4107 -15328c901,-3364 5989,-2001 5088,1364z"/>
       </g>
       <g style="clip-path:url(#id9)">
        <g>
         <path id="1" class="fil6" d="M75755 24240l-2544 -682 0 -3593 4341 1163 -1797 3112z"/>
        </g>
       </g>
       <g style="clip-path:url(#id10)">
        <path class="fil0" d="M77171 24045l-4107 15327c-901,3365 -5990,2001 -5088,-1363l4107 -15328c901,-3364 5989,-2001 5088,1364z"/>
        <path class="fil8" d="M73211 23558l2544 682 3057 -11406c111,-416 341,-1099 634,-1099l-2727 0c-293,0 -523,683 -634,1099l-2874 10724z"/>
        <path class="fil9" d="M72561 25984l2545 682 -711 2651 -2544 -682 710 -2651z"/>
        <path class="fil6" d="M71440 30546l2356 631c52,14 83,67 69,119l-39 143c-14,52 -67,83 -119,69l-2356 -631c-52,-14 -83,-68 -69,-120l39 -142c13,-52 67,-83 119,-69z"/>
        <path class="fil9" d="M70752 32737l2544 681 -711 2652 -2544 -682 711 -2651z"/>
        <path class="fil6" d="M48092 38432c-487,1818 33,3757 1364,5088 1817,-487 3238,-1907 3725,-3725l506 -1891c-893,-240 -1707,-710 -2361,-1364 -893,240 -1834,239 -2727,0l-507 1892z"/>
        <circle class="fil7" transform="matrix(0.943301 0.252756 -0.252757 0.943299 49840.5 42083.7)" r="339"/>
        <path class="fil6" d="M70397 34062l2544 682 -356 1326 -2544 -682 356 -1326z"/>
        <path class="fil6" d="M72206 27310l2544 681 -355 1326 -2544 -682 355 -1325z"/>
       </g>
      </g>
     </g>
    </g>
    <path class="fil0" d="M22000 40685c-6688,0 -12044,-2634 -12044,-17012 0,-9194 -385,-21673 12044,-21673 12429,0 12044,12479 12044,21673 0,14378 -5356,17012 -12044,17012z"/>
    <path class="fil10" d="M22000 32443c-2711,0 -6638,-580 -6638,-3108 0,-2528 0,-13404 0,-16670 0,-3265 4767,-3739 6638,-3739 1871,0 6638,474 6638,3739 0,3266 0,14142 0,16670 0,2528 -3927,3108 -6638,3108z"/>
    <path class="fil11" d="M21210 10761c98,-14 189,53 203,151 15,98 -53,189 -151,203 -917,137 -1817,359 -2688,663 -870,304 -1713,690 -2515,1153 -85,50 -195,20 -244,-65 -50,-85 -20,-195 65,-244 821,-475 1684,-870 2577,-1181 893,-312 1815,-540 2753,-680z"/>
    <path class="fil11" d="M22738 11115c-98,-14 -166,-105 -151,-203 14,-98 105,-165 203,-151 938,140 1860,368 2753,680 893,311 1756,706 2577,1181 85,49 115,159 65,244 -49,85 -159,115 -244,65 -802,-463 -1645,-849 -2515,-1153 -871,-304 -1771,-526 -2688,-663z"/>
    <path class="fil11" d="M21821 11099c0,-99 80,-179 179,-179 99,0 179,80 179,179l0 8532c0,99 -80,179 -179,179 -99,0 -179,-80 -179,-179l0 -8532z"/>
    <path class="fil11" d="M21294 11507c0,-99 80,-179 179,-179 99,0 180,80 180,179l0 7756c0,99 -81,179 -180,179 -99,0 -179,-80 -179,-179l0 -7756z"/>
    <path class="fil11" d="M22348 11507c0,-99 80,-179 179,-179 99,0 179,80 179,179l0 7756c0,99 -80,179 -179,179 -99,0 -179,-80 -179,-179l0 -7756z"/>
    <path class="fil12" d="M25024 5693c56,-2 193,16 490,27 311,12 372,-229 360,-378 -317,69 -392,86 -666,86 -287,0 -640,80 -647,332 -6,251 322,308 492,356 47,11 65,49 34,74 -73,58 -237,135 -257,272 -27,194 149,346 373,342 298,-7 628,-133 945,-513 89,-108 189,-289 251,-369 15,-28 58,-42 77,-40 56,12 136,55 125,117 -16,94 -272,387 -102,563 105,109 369,187 579,34 196,-143 127,-273 49,-283 -56,-6 -211,189 -337,50 -104,-116 144,-355 193,-441 72,-123 -206,-215 -323,-368 -76,-101 120,-409 -125,-491 -80,-27 -327,122 -239,549 -113,423 -968,1162 -1082,864 -28,-73 45,-194 241,-235 324,-67 299,-267 144,-287 -242,-32 -310,-32 -599,-99 -114,-13 -110,-164 24,-162zm2038 -567c-43,43 -64,94 -64,155 0,62 21,114 64,158 42,43 94,64 156,64 61,0 113,-21 155,-64 43,-44 65,-96 65,-158 0,-61 -22,-112 -65,-155 -43,-44 -95,-65 -155,-65 -61,0 -113,21 -156,65zm337 337c-50,51 -110,76 -181,76 -71,0 -132,-25 -182,-76 -49,-50 -74,-110 -74,-182 0,-70 25,-130 75,-180 50,-50 110,-75 181,-75 71,0 131,25 181,75 50,50 75,110 75,180 0,71 -25,132 -75,182zm-133 -279c-13,-7 -33,-10 -60,-10l-42 0 0 102 44 0c21,0 37,-2 48,-6 19,-8 29,-23 29,-44 0,-21 -7,-35 -19,-42zm-53 -44c35,0 60,4 76,10 29,12 44,36 44,71 0,26 -9,44 -28,56 -9,6 -23,11 -40,14 22,3 38,12 48,27 10,15 15,30 15,44l0 20c0,7 1,14 1,21 1,8 1,13 3,15l1 3 -46 0c0,-1 -1,-1 -1,-2 0,-1 0,-2 0,-4l-1 -9 0 -22c0,-33 -9,-54 -27,-65 -10,-6 -29,-9 -55,-9l-39 0 0 111 -50 0 0 -281 99 0zm-3360 573c-195,-56 -365,175 -415,380 -46,188 -22,440 148,472 136,26 294,-93 334,-313 11,-59 36,-247 43,-296 47,-298 82,-429 82,-429 163,-624 553,-1837 659,-1907 110,-74 414,-86 319,167 -148,393 -320,742 -475,1228 -182,569 -535,1483 -220,1523 147,19 206,-117 295,-48 135,106 -13,297 -273,322 -358,13 -350,-197 -509,-106 -509,289 -822,-115 -722,-622 85,-434 420,-740 793,-553 0,0 96,48 88,129 -6,62 -53,75 -147,53zm-4473 -164c27,-99 85,-121 162,-139 114,-38 274,-87 372,-105 248,-61 319,-47 351,-219 23,-119 -29,-176 -29,-176 0,0 -541,169 -649,199 -83,35 -79,-36 -77,-54l0 -4 0 0 0 0 0 0 0 0 0 0 0 0 0 0 0 0 0 0 0 0 0 0 0 0c0,3 -2,11 0,4 2,-11 13,-54 45,-198 177,-779 74,-987 -67,-1105 -356,-295 -1658,317 -2588,1051 -310,270 -490,333 -288,549 180,179 297,45 297,45 170,-135 539,-513 781,-692 346,-256 823,-625 1245,-724 335,-85 436,14 391,355 -26,293 -251,953 -251,953 0,0 -347,154 -450,193 -81,30 -166,9 -176,193 -4,198 116,124 196,93 62,-24 209,-93 263,-115 41,-32 86,-5 63,54 -40,130 -113,341 -252,647 -175,418 -489,988 -530,1132 5,94 108,108 244,110 125,-10 183,-96 183,-96 0,0 163,-350 413,-966 182,-448 301,-818 351,-985zm962 609c-78,79 -168,188 -180,277 -26,191 72,359 314,355 261,-5 347,-194 782,-459 122,-74 273,-199 336,-209 24,0 59,7 56,53 -37,174 -77,291 -32,439 32,105 170,170 270,95 166,-126 168,-198 384,-481 35,-47 166,-262 227,-234 50,24 36,94 27,148 -46,266 -161,685 364,621 124,-16 225,-100 130,-189 -57,-54 -121,-15 -193,-31 -169,-39 248,-806 49,-949 -279,-200 -538,155 -732,414 -77,102 -134,57 -183,-87 -56,-160 -388,-43 -578,56 -305,156 -866,681 -919,420 -9,-45 64,-146 201,-196 161,-58 342,-110 342,-207 0,-74 -45,-127 -93,-124 -224,12 -484,71 -782,-10 -68,-1 -97,-172 104,-149 54,6 172,14 622,23 318,6 325,-231 282,-357 -264,78 -398,69 -677,69 -293,0 -687,40 -671,323 15,237 348,302 521,322 49,-5 65,42 29,67z"/>
    <path class="fil13" d="M19821 26860l1580 0 0 -1567 -1580 0 0 1567z"/>
    <path class="fil13" d="M21665 26860l2093 0 0 -1567 -2093 0 0 1567z"/>
    <path class="fil13" d="M23850 22059l1283 -915c-477,-674 -2187,-903 -3370,-903 -1184,0 -2894,229 -3371,903l1284 915c295,-156 1354,-209 2087,-209 733,0 1792,53 2087,209z"/>
    <path class="fil13" d="M19599 22347l-1379 -984c-114,114 -284,487 -284,994 0,507 0,3601 0,3601l1663 0 0 -3611z"/>
    <path class="fil13" d="M23850 30094l1283 915c-477,675 -2187,904 -3370,904 -1184,0 -2894,-229 -3371,-904l1284 -915c295,157 1354,210 2087,210 733,0 1792,-53 2087,-210z"/>
    <path class="fil13" d="M19599 29807l-1379 984c-114,-114 -284,-487 -284,-994 0,-507 0,-3602 0,-3602l1663 0 0 3612z"/>
    <path class="fil13" d="M22000 10794c364,0 658,-295 658,-659 0,-363 -294,-658 -658,-658 -364,0 -658,295 -658,658 0,364 294,659 658,659z"/>
    <path class="fil14" d="M23926 22347l1380 -984c114,114 284,487 284,994 0,507 0,3601 0,3601l-1664 0 0 -3611z"/>
    <path class="fil14" d="M23926 29807l1380 984c114,-114 284,-487 284,-994 0,-507 0,-3602 0,-3602l-1664 0 0 3612z"/>
    <path class="fil14" d="M19821 25056l1580 0 0 -2683 -1580 0 0 2683z"/>
    <path class="fil14" d="M19821 27097l1580 0 0 2684 -1580 0 0 -2684z"/>
    <path class="fil13" d="M18929 36106l6215 0 0 -421 -6215 0 0 421z"/>
   </g>
  </g>
 </g>
</svg>
