<?xml version="1.0" encoding="UTF-8"?>
<!DOCTYPE svg PUBLIC "-//W3C//DTD SVG 1.0//EN" "http://www.w3.org/TR/2001/REC-SVG-20010904/DTD/svg10.dtd">
<!-- Creator: CorelDRAW X8 -->
<svg xmlns="http://www.w3.org/2000/svg" xml:space="preserve" width="440px" height="440px" version="1.0" style="shape-rendering:geometricPrecision; text-rendering:geometricPrecision; image-rendering:optimizeQuality; fill-rule:evenodd; clip-rule:evenodd"
viewBox="0 0 44000 44000"
 xmlns:xlink="http://www.w3.org/1999/xlink">
 <defs>
  <style type="text/css">
   <![CDATA[
    .str0 {stroke:gray;stroke-width:295.277;stroke-linecap:round;stroke-linejoin:round}
    .fil0 {fill:none}
    .fil4 {fill:#EBECEC}
    .fil11 {fill:#D9DADA}
    .fil8 {fill:#5B5B5B}
    .fil7 {fill:#434242}
    .fil6 {fill:#2B2A29}
    .fil2 {fill:#C48C1C}
    .fil5 {fill:#DEA020}
    .fil1 {fill:#F7B124}
    .fil3 {fill:#F9C55B}
    .fil9 {fill:#4F4F4E;fill-rule:nonzero}
    .fil10 {fill:#F7B124;fill-rule:nonzero}
   ]]>
  </style>
    <clipPath id="id0">
     <path d="M9117 7588c0,2549 909,4616 2031,4616l21929 0 0 -9232 -21929 0c-1122,0 -2031,2066 -2031,4616z"/>
    </clipPath>
    <clipPath id="id1">
     <path d="M31457 7588c0,2287 726,4142 1620,4142 895,0 1621,-1855 1621,-4142 0,-2288 -726,-4142 -1621,-4142 -894,0 -1620,1854 -1620,4142z"/>
    </clipPath>
     <clipPath id="id2">
      <path d="M8522 24290l33478 0 0 -794c0,-1386 -1133,-2519 -2519,-2519l-30959 0 0 3313z"/>
     </clipPath>
     <clipPath id="id3">
      <path d="M8769 16976c-3130,0 -6769,1571 -6769,5657 0,4086 2146,10681 3565,12101 1420,1419 8330,6294 20983,6294 3629,0 5044,-2293 5553,-2887 0,0 -1188,-2565 -1984,-3235 -797,-671 -3576,-2469 -4421,-1119 -751,1200 -2398,3786 -3471,3786 -2619,0 -12541,-6840 -12541,-9427 0,-1685 0,-4394 0,-7068 0,-1442 -602,-2948 -915,-4102z"/>
     </clipPath>
     <clipPath id="id4">
      <path d="M8769 22119c1420,0 2571,-1151 2571,-2571 0,-1421 -1151,-2572 -2571,-2572 -1421,0 -2572,1151 -2572,2572 0,1420 1151,2571 2572,2571z"/>
     </clipPath>
 </defs>
 <g id="Layer_x0020_1">
  <metadata id="CorelCorpID_0Corel-Layer"/>
  <g id="_2186600637312">
   <path class="fil0 str0" d="M33442 39289l0 0zm10330 -15793l0 794c0,978 -793,1772 -1772,1772l-28214 0c295,1185 656,2444 1043,3118l3 -2c218,378 930,1056 1767,1778 1609,1388 3514,2768 3790,2927 668,386 1009,830 1173,1332l3 -1c52,162 85,309 102,447 262,90 455,141 558,141 113,0 134,-350 479,-779 599,-745 1150,-1615 1495,-2167l-5 -3c60,-96 141,-204 241,-323 878,-1044 2094,-1174 3347,-848 822,214 1676,652 2356,1078 465,291 864,586 1114,796 1104,930 2444,3830 2448,3838 303,647 178,1385 -256,1896l-126 161c-789,1003 -2635,3349 -6770,3349 -4987,0 -9132,-734 -12438,-1726 -5529,-1659 -8816,-4107 -9797,-5088 -940,-940 -2050,-3393 -2855,-6126 -709,-2407 -1230,-5111 -1230,-7227 0,-1587 436,-2907 1160,-3984 710,-1056 1673,-1842 2758,-2394 527,-745 1194,-1407 2026,-1898 895,-529 1949,-847 3181,-847l265 2c-628,-413 -1146,-1085 -1526,-1947 -461,-1049 -747,-2458 -747,-3977 0,-1519 286,-2928 747,-3977 656,-1490 1726,-2411 3056,-2411l21929 0c1303,0 2325,948 2924,2480 404,1032 654,2416 654,3908 0,1491 -250,2875 -654,3907 -599,1532 -1621,2480 -2924,2480l-20370 0c495,159 922,341 1339,519 676,289 1315,562 2406,562l6879 0c1527,0 3463,461 5427,928 1814,432 3655,870 4891,870 1808,0 3271,-226 4238,-376 615,-96 1075,-167 1396,-167 527,0 979,192 1348,548 419,404 645,979 643,1634 0,318 -52,676 -161,1038 523,219 995,537 1393,933l12 12c774,780 1254,1849 1254,3020z"/>
   <path class="fil1" d="M9117 7588c0,2549 909,4616 2031,4616l21929 0 0 -9232 -21929 0c-1122,0 -2031,2066 -2031,4616z"/>
   <g style="clip-path:url(#id0)">
    <g>
     <rect class="fil2" transform="matrix(1.1478E-14 0.433386 -0.433388 1.14781E-14 36643.1 8676.82)" width="5625" height="67084"/>
     <rect class="fil3" transform="matrix(-5.73913E-15 -0.216698 -0.433388 1.14781E-14 36643.1 5279.71)" width="5625" height="67084"/>
     <rect class="fil4" transform="matrix(-1.42823E-15 -0.0539269 -0.107842 2.85614E-15 29401.7 4821.9)" width="5625" height="67084" rx="4825" ry="4825"/>
     <rect class="fil4" transform="matrix(-1.42823E-15 -0.0539269 0.0115477 -3.05835E-16 30375.7 4821.9)" width="5625" height="67084" rx="4825" ry="4825"/>
    </g>
   </g>
   <path class="fil0" d="M9117 7588c0,2549 909,4616 2031,4616l21929 0 0 -9232 -21929 0c-1122,0 -2031,2066 -2031,4616z"/>
   <path class="fil5" d="M31272 7588c0,2549 808,4616 1805,4616 998,0 1806,-2067 1806,-4616 0,-2550 -808,-4616 -1806,-4616 -997,0 -1805,2066 -1805,4616z"/>
   <path class="fil6" d="M31457 7588c0,2287 726,4142 1620,4142 895,0 1621,-1855 1621,-4142 0,-2288 -726,-4142 -1621,-4142 -894,0 -1620,1854 -1620,4142z"/>
   <g style="clip-path:url(#id1)">
    <g>
     <rect class="fil7" transform="matrix(-1.02995E-14 -0.388889 -0.433388 1.14781E-14 36643.1 6610.41)" width="5625" height="67084"/>
     <rect class="fil8" transform="matrix(5.14988E-15 0.194448 -0.433388 1.14781E-14 36643.1 9658.73)" width="5625" height="67084"/>
    </g>
   </g>
   <path class="fil0" d="M31457 7588c0,2287 726,4142 1620,4142 895,0 1621,-1855 1621,-4142 0,-2288 -726,-4142 -1621,-4142 -894,0 -1620,1854 -1620,4142z"/>
   <g>
    <path class="fil7" d="M10510 23880c0,994 868,5143 868,5143 0,0 -1530,-1215 -2067,-1799 -536,-584 -599,3629 -599,3629l1022 712 2543 -649c1039,1013 2111,1911 3210,2884l-732 1266 3801 2650c0,0 1153,-1483 1262,-1673 110,-190 168,-352 -315,-631 -483,-279 -5298,-3785 -6200,-5348 -902,-1563 -1543,-5036 -1846,-6169 -304,-1132 -947,-15 -947,-15z"/>
    <path class="fil7" d="M8522 24290l33478 0 0 -794c0,-1386 -1133,-2519 -2519,-2519l-30959 0 0 3313z"/>
    <g style="clip-path:url(#id2)">
     <g>
      <rect class="fil6" x="8522" y="20976" width="33478" height="1657"/>
      <path class="fil6" d="M5269 22331c0,-2207 1263,-6373 5112,-6373 3849,0 4039,1546 7099,1546 3061,0 4197,0 6879,0 2682,0 7478,1798 10318,1798 2840,0 4940,-543 5634,-543 695,0 -81,3604 -4120,3604 -4039,0 -5395,536 -8771,536 -3377,0 -8330,-1041 -13158,-1041 -4339,0 -4433,7068 -7036,7068 -1972,0 -1957,-5012 -1957,-6595z"/>
     </g>
    </g>
    <path class="fil0" d="M8522 24290l33478 0 0 -794c0,-1386 -1133,-2519 -2519,-2519l-30959 0 0 3313z"/>
    <path class="fil8" d="M8769 16976c-3130,0 -6769,1571 -6769,5657 0,4086 2146,10681 3565,12101 1420,1419 8330,6294 20983,6294 3629,0 5044,-2293 5553,-2887 0,0 -1188,-2565 -1984,-3235 -797,-671 -3576,-2469 -4421,-1119 -751,1200 -2398,3786 -3471,3786 -2619,0 -12541,-6840 -12541,-9427 0,-1685 0,-4394 0,-7068 0,-1442 -602,-2948 -915,-4102z"/>
    <g style="clip-path:url(#id3)">
     <g>
      <path id="1" class="fil7" d="M9684 28146c0,2068 7253,10635 15457,10635 8204,0 17756,-4607 17756,-4607l-33213 -6028z"/>
      <rect class="fil7" transform="matrix(0.539599 -0.05888 0.0771189 0.706746 5858.51 25515.9)" width="2344" height="7865" rx="2000" ry="2000"/>
      <path class="fil9" d="M3934 21655c0,-1341 451,-3380 1627,-4847 855,-1066 2085,-1833 3792,-1833 2096,0 3138,445 4121,864 820,350 1597,682 2978,682l6879 0c1357,0 3210,441 5089,888 1898,452 3824,910 5229,910 1884,0 3435,-240 4461,-399 531,-83 928,-144 1173,-144 268,0 440,170 506,459l3 13c36,169 31,388 -20,634 -49,232 -141,496 -281,770 -555,1083 -1883,2341 -4328,2341 -2100,0 -3467,146 -4771,284 -1215,129 -2379,253 -4001,253 -1550,0 -3426,-217 -5468,-454 -2418,-280 -5073,-587 -7689,-587 -2255,0 -3307,2152 -4225,4031 -787,1609 -1485,3036 -2811,3036 -2263,0 -2262,-5165 -2262,-6864l-2 -37zm2104 -4464c-1077,1344 -1490,3224 -1490,4464l0 37c-1,1547 -2,6251 1650,6251 946,0 1565,-1266 2262,-2692 997,-2039 2139,-4376 4774,-4376 2642,0 5320,310 7759,592 2020,234 3874,449 5398,449 1604,0 2744,-121 3936,-248 1327,-140 2717,-288 4836,-288 2154,0 3309,-1078 3784,-2006 113,-221 187,-433 225,-617 32,-152 40,-277 25,-365 -221,12 -559,64 -994,132 -1050,163 -2638,409 -4554,409 -1476,0 -3437,-467 -5370,-927 -1844,-439 -3662,-872 -4948,-872l-6879 0c-1503,0 -2337,-356 -3218,-732 -925,-395 -1907,-814 -3881,-814 -1492,0 -2567,671 -3315,1603z"/>
      <path class="fil6" d="M28321 33765c606,349 718,1040 260,1671 -457,631 -1971,2556 -1971,2556l851 0c0,0 1604,-1998 1799,-2335 195,-338 1052,-700 1509,46 456,745 1094,-914 -389,-1908 -1483,-994 -2059,-30 -2059,-30z"/>
     </g>
    </g>
    <path class="fil0" d="M8769 16976c-3130,0 -6769,1571 -6769,5657 0,4086 2146,10681 3565,12101 1420,1419 8330,6294 20983,6294 3629,0 5044,-2293 5553,-2887 0,0 -1188,-2565 -1984,-3235 -797,-671 -3576,-2469 -4421,-1119 -751,1200 -2398,3786 -3471,3786 -2619,0 -12541,-6840 -12541,-9427 0,-1685 0,-4394 0,-7068 0,-1442 -602,-2948 -915,-4102z"/>
    <path class="fil8" d="M4241 21655c0,-2207 1262,-6374 5112,-6374 3849,0 4039,1546 7099,1546 3061,0 4197,0 6879,0 2682,0 7478,1799 10318,1799 2839,0 4940,-543 5634,-543 695,0 -81,3604 -4120,3604 -4039,0 -5395,536 -8772,536 -3376,0 -8329,-1041 -13157,-1041 -4339,0 -4433,7068 -7036,7068 -1972,0 -1957,-5012 -1957,-6595z"/>
    <path class="fil6" d="M8769 22119c1420,0 2571,-1151 2571,-2571 0,-1421 -1151,-2572 -2571,-2572 -1421,0 -2572,1151 -2572,2572 0,1420 1151,2571 2572,2571z"/>
    <g style="clip-path:url(#id4)">
     <g>
      <ellipse class="fil7" cx="8769" cy="18573" rx="2572" ry="1597"/>
     </g>
    </g>
    <path class="fil0" d="M8769 22119c1420,0 2571,-1151 2571,-2571 0,-1421 -1151,-2572 -2571,-2572 -1421,0 -2572,1151 -2572,2572 0,1420 1151,2571 2572,2571z"/>
    <path class="fil10" d="M9321 19455c24,-88 76,-108 144,-124 101,-34 244,-78 331,-94 220,-54 284,-41 312,-194 20,-107 -26,-157 -26,-157 0,0 -481,150 -577,177 -74,31 -71,-32 -69,-49l0 -3 0 0 1 0 0 0 0 0 0 0 0 0 0 0 0 0 0 0 0 0 -1 0 0 0c0,2 -1,10 0,3 2,-9 12,-47 41,-175 157,-693 65,-878 -60,-984 -317,-262 -1475,282 -2303,936 -276,240 -436,296 -256,488 160,160 264,40 264,40 152,-120 480,-456 696,-616 307,-228 731,-556 1107,-644 298,-75 388,12 348,316 -24,261 -224,848 -224,848 0,0 -308,137 -400,171 -72,27 -148,9 -156,172 -4,176 103,110 174,83 55,-21 186,-82 234,-103 36,-27 76,-4 56,48 -36,116 -101,304 -224,576 -156,372 -436,880 -472,1008 4,84 96,96 217,97 112,-8 163,-85 163,-85 0,0 145,-311 368,-860 162,-398 267,-727 312,-875zm467 -1488c-38,38 -57,84 -57,139 0,54 19,101 57,139 38,39 84,58 139,58 54,0 100,-19 138,-58 39,-38 57,-85 57,-139 0,-55 -18,-101 -57,-139 -38,-39 -84,-58 -138,-58 -54,0 -100,19 -139,58zm300 300c-44,45 -98,67 -161,67 -63,0 -117,-22 -161,-67 -45,-44 -67,-98 -67,-161 0,-63 23,-117 67,-161 45,-44 98,-67 161,-67 63,0 117,23 161,67 45,44 67,98 67,161 0,63 -22,117 -67,161zm-119 -248c-10,-6 -28,-9 -53,-9l-37 0 0 91 40 0c18,0 32,-2 42,-6 17,-7 25,-20 25,-39 0,-18 -5,-30 -17,-37zm-47 -39c31,0 54,3 69,9 25,11 38,32 38,63 0,23 -8,39 -24,50 -9,5 -21,9 -36,12 19,3 34,11 43,24 9,13 13,26 13,39l0 18c0,6 1,12 1,19 0,7 1,11 2,13l2 3 -41 0c-1,-1 -1,-2 -1,-2 0,-1 -1,-2 -1,-3l-1 -8 0 -20c0,-29 -8,-48 -23,-58 -10,-5 -26,-8 -49,-8l-35 0 0 99 -44 0 0 -250 87 0z"/>
    <path class="fil11" d="M6560 26715c351,0 636,-285 636,-636 0,-351 -285,-636 -636,-636 -351,0 -636,285 -636,636 0,351 285,636 636,636z"/>
    <path class="fil11" d="M26359 21613c352,0 636,-285 636,-637 0,-351 -284,-636 -636,-636 -351,0 -636,285 -636,636 0,352 285,637 636,637z"/>
   </g>
  </g>
 </g>
</svg>
