<?xml version="1.0" encoding="UTF-8"?>
<!DOCTYPE svg PUBLIC "-//W3C//DTD SVG 1.0//EN" "http://www.w3.org/TR/2001/REC-SVG-20010904/DTD/svg10.dtd">
<!-- Creator: CorelDRAW X8 -->
<svg xmlns="http://www.w3.org/2000/svg" xml:space="preserve" width="440px" height="440px" version="1.0" style="shape-rendering:geometricPrecision; text-rendering:geometricPrecision; image-rendering:optimizeQuality; fill-rule:evenodd; clip-rule:evenodd"
viewBox="0 0 440 440"
 xmlns:xlink="http://www.w3.org/1999/xlink">
 <defs>
  <style type="text/css">
   <![CDATA[
    .str0 {stroke:#B3B3B3;stroke-width:2.95277;stroke-linecap:round;stroke-linejoin:round}
    .fil2 {fill:none}
    .fil6 {fill:#FEFEFE}
    .fil12 {fill:#EBECEC}
    .fil4 {fill:#D9DADA}
    .fil5 {fill:#B2B3B3}
    .fil3 {fill:#898989}
    .fil9 {fill:#7D7D7D}
    .fil8 {fill:#727271}
    .fil11 {fill:#676766}
    .fil10 {fill:#5B5B5B}
    .fil1 {fill:#434242}
    .fil0 {fill:#2B2A29}
    .fil7 {fill:#FEFEFE;fill-rule:nonzero}
   ]]>
  </style>
     <clipPath id="id0">
      <path d="M274 394l1 -202c0,-21 -25,-39 -55,-39 -30,0 -55,18 -55,39l1 202c0,14 24,26 54,26 30,0 54,-12 54,-26z"/>
     </clipPath>
     <clipPath id="id1">
      <path d="M220 163c20,0 37,-4 37,-10l0 -40c0,-6 -17,-11 -37,-11 -20,0 -37,5 -37,11l0 40c0,6 17,10 37,10z"/>
     </clipPath>
     <clipPath id="id2">
      <path d="M253 109l-2 -71c0,-10 -8,-18 -17,-18l-28 0c-9,0 -17,8 -17,18l-2 71c0,5 15,10 33,10 18,0 33,-5 33,-10z"/>
     </clipPath>
     <clipPath id="id3">
      <path d="M220 114c16,0 29,-3 29,-7l0 -22c0,-5 -13,-8 -29,-8 -16,0 -29,3 -29,8l0 22c0,4 13,7 29,7z"/>
     </clipPath>
     <clipPath id="id4">
      <path d="M220 88c14,0 25,-3 25,-7l0 -34c0,-20 -50,-19 -50,-13l0 47c0,4 11,7 25,7z"/>
     </clipPath>
 </defs>
 <g id="Layer_x0020_1">
  <metadata id="CorelCorpID_0Corel-Layer"/>
  <g id="_2186262986480">
   <g>
    <path class="fil0" d="M274 394l1 -202c0,-21 -25,-39 -55,-39 -30,0 -55,18 -55,39l1 202c0,14 24,26 54,26 30,0 54,-12 54,-26z"/>
    <g style="clip-path:url(#id0)">
     <g>
      <rect class="fil1" x="146" y="145" width="73.7023" height="290.071"/>
     </g>
    </g>
    <path class="fil2" d="M274 394l1 -202c0,-21 -25,-39 -55,-39 -30,0 -55,18 -55,39l1 202c0,14 24,26 54,26 30,0 54,-12 54,-26z"/>
    <path class="fil3" d="M220 170c22,0 39,-6 39,-12l0 -5 -3 0c-5,-4 -19,-7 -36,-7 -17,0 -31,3 -36,7l-3 0 0 5c0,6 17,12 39,12z"/>
    <path class="fil0" d="M220 166c22,0 39,-6 39,-13 0,-6 -17,-12 -39,-12 -22,0 -39,6 -39,12 0,7 17,13 39,13z"/>
    <path class="fil0" d="M220 163c20,0 37,-4 37,-10l0 -40c0,-6 -17,-11 -37,-11 -20,0 -37,5 -37,11l0 40c0,6 17,10 37,10z"/>
    <g style="clip-path:url(#id1)">
     <g>
      <rect class="fil1" x="146" y="89" width="73.7023" height="290.071"/>
     </g>
    </g>
    <path class="fil2" d="M220 163c20,0 37,-4 37,-10l0 -40c0,-6 -17,-11 -37,-11 -20,0 -37,5 -37,11l0 40c0,6 17,10 37,10z"/>
    <path class="fil4" d="M253 109l-2 -71c0,-10 -8,-18 -17,-18l-28 0c-9,0 -17,8 -17,18l-2 71c0,5 15,10 33,10 18,0 33,-5 33,-10z"/>
    <g style="clip-path:url(#id2)">
     <g>
      <path id="1" class="fil5" d="M220 163c20,0 37,-4 37,-10l0 -40c0,-6 -17,-11 -37,-11 -20,0 -37,5 -37,11l0 40c0,6 17,10 37,10z"/>
     </g>
    </g>
    <path class="fil2" d="M253 109l-2 -71c0,-10 -8,-18 -17,-18l-28 0c-9,0 -17,8 -17,18l-2 71c0,5 15,10 33,10 18,0 33,-5 33,-10z"/>
    <path class="fil3" d="M220 305c20,-16 37,-44 48,-73 -9,15 -30,37 -48,49 -18,-12 -39,-34 -48,-49 11,29 28,57 48,73z"/>
    <path class="fil6" d="M220 296c20,-16 37,-35 48,-64 -9,15 -30,37 -48,49 -18,-12 -39,-34 -48,-49 11,29 28,48 48,64z"/>
    <path class="fil7" d="M234 253c1,0 1,0 3,0 1,0 2,-1 2,-1 -2,0 -2,0 -4,0 -1,0 -3,0 -3,2 0,1 2,1 3,1 0,0 0,0 0,1 -1,0 -1,0 -1,1 -1,1 0,2 1,2 2,-1 3,-1 5,-3 0,0 1,-1 1,-2 0,0 0,0 0,0 1,0 1,0 1,1 0,0 -1,2 0,2 0,1 1,1 2,1 1,-1 1,-2 1,-2 -1,0 -1,1 -2,0 -1,0 1,-1 1,-2 0,0 -1,-1 -2,-1 0,-1 1,-2 0,-3 -1,0 -2,1 -1,3 -1,2 -5,5 -6,4 0,0 1,-1 2,-1 1,-1 1,-1 0,-2 -1,0 -1,0 -3,0 0,0 0,-1 0,-1zm10 -3c0,1 0,1 0,1 0,1 0,1 0,1 0,0 1,0 1,0 0,0 1,0 1,0 0,0 0,0 0,-1 0,0 0,0 0,-1 0,0 -1,0 -1,0 0,0 -1,0 -1,0zm2 2c0,0 -1,0 -1,0 0,0 -1,0 -1,0 0,0 0,0 0,-1 0,0 0,0 0,-1 0,0 1,0 1,0 0,0 1,0 1,0 0,1 0,1 0,1 0,1 0,1 0,1zm-1 -1c0,0 0,0 0,0l0 0 0 0 0 0c0,0 0,0 0,0 0,0 0,0 0,0 0,0 0,0 0,0zm0 0c0,0 0,0 0,0 0,0 1,0 1,0 0,0 -1,0 -1,0 0,0 0,0 0,0 0,0 0,0 0,0 0,0 0,1 0,1l0 0c0,0 1,0 1,0 0,0 0,0 0,0l0 0 -1 0c0,0 0,0 0,0 0,0 0,0 0,0l0 0 0 0c0,0 0,-1 0,-1 0,0 0,0 0,0l0 0 0 1 -1 0 0 -1 1 0zm-16 2c-1,0 -2,1 -2,2 0,1 0,2 1,2 0,0 1,0 1,-1 0,0 0,-1 0,-2 1,-1 1,-2 1,-2 1,-3 2,-8 3,-9 0,0 2,0 1,1 0,2 -1,4 -2,6 -1,3 -2,7 -1,7 1,0 1,0 2,0 0,1 -1,1 -2,2 -1,0 -1,-1 -2,-1 -3,1 -4,-1 -4,-3 1,-2 2,-3 4,-3 0,0 1,1 1,1 0,0 -1,0 -1,0zm-22 0c1,-1 1,-1 1,-1 1,0 2,-1 2,-1 1,0 2,0 2,-1 0,0 0,-1 0,-1 0,0 -3,1 -4,1 0,1 0,0 0,0l0 0 0 0 0 0 0 0 0 0 0 0 0 0 0 0 0 0 0 0 0 0 0 0 0 0c0,0 0,0 0,0 0,0 0,0 0,-1 1,-4 1,-5 0,-5 -2,-2 -8,1 -12,5 -2,1 -3,2 -2,3 1,0 2,0 2,0 0,-1 2,-3 3,-4 2,-1 4,-3 6,-3 2,0 2,0 2,2 0,1 -1,4 -1,4 0,0 -2,1 -2,1 -1,0 -1,0 -1,1 0,1 1,1 1,1 0,-1 1,-1 1,-1 0,0 1,0 1,0 -1,1 -1,2 -2,3 -1,2 -2,5 -2,6 0,0 0,0 1,0 1,0 1,0 1,0 0,0 1,-2 2,-5 1,-2 1,-4 1,-4zm5 2c0,1 -1,1 -1,2 0,1 1,1 2,1 1,0 1,0 3,-2 1,0 2,-1 2,-1 0,0 0,0 0,1 0,0 0,1 0,2 0,0 1,0 1,0 1,-1 1,-1 2,-2 0,0 1,-2 1,-1 1,0 1,0 1,0 -1,2 -1,4 1,3 1,0 1,0 1,-1 0,0 -1,0 -1,0 -1,0 1,-4 0,-4 -1,-1 -2,0 -3,2 -1,0 -1,0 -1,-1 0,0 -2,0 -3,1 -1,0 -4,3 -4,2 0,-1 0,-1 1,-1 0,-1 1,-1 1,-1 0,-1 0,-1 0,-1 -1,0 -3,0 -4,0 0,0 0,-1 1,-1 0,0 0,0 3,0 1,0 1,-1 1,-1 -1,0 -2,0 -3,0 -2,0 -4,0 -4,2 1,1 2,1 3,1 0,0 0,0 0,0z"/>
    <path class="fil6" d="M192 395c8,3 17,5 28,5 11,0 20,-2 28,-5 1,0 1,-1 1,-2l0 -13c0,-1 0,-1 -1,-2 0,0 -1,0 -1,0 -8,3 -17,4 -27,4 -10,0 -19,-1 -27,-4 0,0 -1,0 -1,0 -1,1 -1,1 -1,2l0 13c0,1 0,2 1,2zm28 -58c-20,0 -37,-4 -46,-11 -1,-1 -2,-1 -2,-1 -1,1 -1,1 -1,2l0 15c0,0 0,1 0,1 9,8 27,14 49,14 22,0 40,-6 49,-14 0,0 0,-1 0,-1l0 -15c0,0 0,-1 -1,-2 0,0 -1,0 -2,1 -9,7 -26,11 -46,11z"/>
    <path class="fil8" d="M220 114c16,0 29,-3 29,-7l0 -22c0,-5 -13,-8 -29,-8 -16,0 -29,3 -29,8l0 22c0,4 13,7 29,7z"/>
    <g style="clip-path:url(#id3)">
     <g>
      <rect class="fil9" x="146" y="77" width="73.7023" height="52.969"/>
     </g>
    </g>
    <path class="fil2" d="M220 114c16,0 29,-3 29,-7l0 -22c0,-5 -13,-8 -29,-8 -16,0 -29,3 -29,8l0 22c0,4 13,7 29,7z"/>
    <path class="fil10" d="M220 88c14,0 25,-3 25,-7l0 -34c0,-20 -50,-19 -50,-13l0 47c0,4 11,7 25,7z"/>
    <g style="clip-path:url(#id4)">
     <g>
      <path id="1" class="fil11" d="M195 34l50 18 0 -5c0,-20 -50,-19 -50,-13z"/>
      <rect class="fil11" x="146" y="4" width="73.7023" height="290.071"/>
     </g>
    </g>
    <path class="fil2" d="M220 88c14,0 25,-3 25,-7l0 -34c0,-20 -50,-19 -50,-13l0 47c0,4 11,7 25,7z"/>
    <path class="fil12" d="M220 357c22,0 40,-6 49,-14 0,0 0,-1 0,-1l0 -15c0,0 0,-1 -1,-2 0,0 -1,0 -2,1 -9,7 -26,11 -46,11 0,0 0,0 0,0l0 20c0,0 0,0 0,0z"/>
    <path class="fil12" d="M247 378c-8,3 -17,4 -27,4 0,0 0,0 0,0l0 18c0,0 0,0 0,0 11,0 20,-2 28,-5 1,0 1,-1 1,-2l0 -13c0,-1 0,-1 -1,-2 0,0 -1,0 -1,0z"/>
    <path class="fil12" d="M220 296c20,-16 37,-35 48,-64 -9,15 -30,37 -48,49l0 15z"/>
    <path class="fil10" d="M186 204c8,0 16,-6 18,-14 3,-7 -2,-14 -9,-14 -7,0 -15,7 -18,14 -2,8 2,14 9,14z"/>
    <path class="fil1" d="M254 204c-8,0 -16,-6 -18,-14 -3,-7 2,-14 9,-14 7,0 15,7 18,14 2,8 -2,14 -9,14z"/>
   </g>
   <path class="fil2 str0" d="M292 194l-1 200 0 0c0,15 -9,27 -25,34 -12,6 -29,10 -46,10 -17,0 -34,-4 -46,-10 -16,-7 -25,-19 -25,-34l0 -1 -1 -201 0 0c0,-9 2,-18 7,-25 3,-4 5,-7 8,-10l0 -4c0,-3 1,-6 3,-10l0 -30c0,-4 1,-8 3,-11l2 -65c0,-9 4,-18 11,-24 0,-1 0,-1 1,-2 6,-5 14,-9 23,-9l28 0c9,0 18,4 24,11 7,6 11,15 11,24l2 65 0 1c2,3 3,7 3,10l0 30c2,4 3,7 3,10l0 4c3,3 5,6 8,10 5,7 7,16 7,25l0 2z"/>
  </g>
 </g>
</svg>
