<?xml version="1.0" encoding="UTF-8"?>
<!DOCTYPE svg PUBLIC "-//W3C//DTD SVG 1.0//EN" "http://www.w3.org/TR/2001/REC-SVG-20010904/DTD/svg10.dtd">
<!-- Creator: CorelDRAW X8 -->
<svg xmlns="http://www.w3.org/2000/svg" xml:space="preserve" width="440px" height="440px" version="1.0" style="shape-rendering:geometricPrecision; text-rendering:geometricPrecision; image-rendering:optimizeQuality; fill-rule:evenodd; clip-rule:evenodd"
viewBox="0 0 44000 44000"
 xmlns:xlink="http://www.w3.org/1999/xlink">
 <defs>
  <style type="text/css">
   <![CDATA[
    .str0 {stroke:#B3B3B3;stroke-width:295.277;stroke-linecap:round;stroke-linejoin:round}
    .fil7 {fill:none}
    .fil6 {fill:none;fill-rule:nonzero}
    .fil3 {fill:gray}
    .fil2 {fill:#999999}
    .fil1 {fill:#2B2A29;fill-rule:nonzero}
    .fil5 {fill:#666666;fill-rule:nonzero}
    .fil4 {fill:gray;fill-rule:nonzero}
    .fil0 {fill:#999999;fill-rule:nonzero}
   ]]>
  </style>
     <clipPath id="id0" style="clip-rule:nonzero">
      <path d="M22000 37457c3970,0 7563,-1609 10164,-4210 2601,-2601 4210,-6195 4210,-10165 0,-3969 -1609,-7563 -4210,-10164 -2601,-2601 -6194,-4210 -10164,-4210 -3962,0 -7551,1604 -10150,4197l-14 13 -6 6c-2598,2601 -4204,6192 -4204,10158 0,3970 1609,7564 4210,10165 2601,2601 6195,4210 10164,4210zm-10972 -25373l4377 -4377c227,-227 594,-227 821,0 227,227 227,594 0,821l-216 216c1844,-771 3867,-1197 5990,-1197 4290,0 8174,1739 10985,4550 2812,2812 4551,6696 4551,10985 0,4290 -1739,8174 -4551,10986 -2811,2811 -6695,4550 -10985,4550 -4290,0 -8174,-1739 -10985,-4550 -2812,-2812 -4551,-6696 -4551,-10986 0,-4289 1739,-8173 4551,-10985l13 -13z"/>
     </clipPath>
 </defs>
 <g id="Layer_x0020_1">
  <metadata id="CorelCorpID_0Corel-Layer"/>
  <g id="_2186258326320">
   <g>
    <g>
     <path class="fil0" d="M16027 12645c-76,75 -199,75 -274,0 -76,-76 -76,-198 0,-274l6197 -6197c75,-76 198,-76 273,0 76,76 76,198 0,274l-6196 6197z"/>
     <path class="fil1" d="M26464 37457c3970,0 7564,-1609 10165,-4210 2601,-2601 4210,-6195 4210,-10165 0,-3969 -1609,-7563 -4210,-10164 -2601,-2601 -6195,-4210 -10165,-4210 -3962,0 -7550,1604 -10150,4197l-14 13 -6 6c-2597,2601 -4204,6192 -4204,10158 0,3970 1609,7564 4210,10165 2601,2601 6195,4210 10164,4210zm-10972 -25373l4377 -4377c227,-227 595,-227 821,0 227,227 227,594 0,821l-215 216c1843,-771 3867,-1197 5989,-1197 4290,0 8174,1739 10986,4550 2811,2812 4550,6696 4550,10985 0,4290 -1739,8174 -4550,10986 -2812,2811 -6696,4550 -10986,4550 -4289,0 -8174,-1739 -10985,-4550 -2811,-2812 -4550,-6696 -4550,-10986 0,-4289 1739,-8173 4550,-10985l13 -13z"/>
     <path class="fil2" d="M21234 6496l667 668c102,102 269,102 371,0l667 -668c102,-102 102,-268 0,-371l-667 -667c-102,-102 -269,-102 -371,0l-667 668c-102,102 -102,268 0,370z"/>
     <path class="fil3" d="M21567 6830l334 334c102,101 269,102 371,0l667 -668c102,-102 102,-268 0,-370l-334 -334 -1038 1038z"/>
    </g>
    <path class="fil0" d="M11562 12645c-75,75 -198,75 -273,0 -76,-76 -76,-198 0,-274l6196 -6197c76,-76 199,-76 274,0 76,76 76,198 0,274l-6197 6197z"/>
    <path class="fil4" d="M22000 37457c3970,0 7563,-1609 10164,-4210 2601,-2601 4210,-6195 4210,-10165 0,-3969 -1609,-7563 -4210,-10164 -2601,-2601 -6194,-4210 -10164,-4210 -3962,0 -7551,1604 -10150,4197l-14 13 -6 6c-2598,2601 -4204,6192 -4204,10158 0,3970 1609,7564 4210,10165 2601,2601 6195,4210 10164,4210zm-10972 -25373l4377 -4377c227,-227 594,-227 821,0 227,227 227,594 0,821l-216 216c1844,-771 3867,-1197 5990,-1197 4290,0 8174,1739 10985,4550 2812,2812 4551,6696 4551,10985 0,4290 -1739,8174 -4551,10986 -2811,2811 -6695,4550 -10985,4550 -4290,0 -8174,-1739 -10985,-4550 -2812,-2812 -4551,-6696 -4551,-10986 0,-4289 1739,-8173 4551,-10985l13 -13z"/>
    <g style="clip-path:url(#id0)">
     <g>
      <path id="1" class="fil5" d="M18191 38112c3970,0 7564,-1609 10165,-4210 2601,-2601 4210,-6195 4210,-10164 0,-3969 -1609,-7563 -4210,-10164 -2601,-2601 -6195,-4210 -10165,-4210 -3962,0 -7550,1603 -10150,4196l-14 14 -6 6c-2597,2600 -4204,6192 -4204,10158 0,3969 1609,7563 4210,10164 2601,2601 6195,4210 10164,4210zm-10972 -25372l4377 -4377c227,-227 594,-227 821,0 227,226 227,594 0,821l-216 215c1844,-771 3867,-1197 5990,-1197 4290,0 8174,1739 10986,4551 2811,2811 4550,6695 4550,10985 0,4290 -1739,8174 -4550,10985 -2812,2812 -6696,4551 -10986,4551 -4290,0 -8174,-1739 -10985,-4551 -2811,-2811 -4550,-6695 -4550,-10985 0,-4290 1739,-8174 4550,-10985l13 -13z"/>
     </g>
    </g>
    <path class="fil6" d="M22000 37457c3970,0 7563,-1609 10164,-4210 2601,-2601 4210,-6195 4210,-10165 0,-3969 -1609,-7563 -4210,-10164 -2601,-2601 -6194,-4210 -10164,-4210 -3962,0 -7551,1604 -10150,4197l-14 13 -6 6c-2598,2601 -4204,6192 -4204,10158 0,3970 1609,7564 4210,10165 2601,2601 6195,4210 10164,4210zm-10972 -25373l4377 -4377c227,-227 594,-227 821,0 227,227 227,594 0,821l-216 216c1844,-771 3867,-1197 5990,-1197 4290,0 8174,1739 10985,4550 2812,2812 4551,6696 4551,10985 0,4290 -1739,8174 -4551,10986 -2811,2811 -6695,4550 -10985,4550 -4290,0 -8174,-1739 -10985,-4550 -2812,-2812 -4551,-6696 -4551,-10986 0,-4289 1739,-8173 4551,-10985l13 -13z"/>
    <g>
     <path class="fil0" d="M7098 12645c-76,75 -198,75 -274,0 -75,-76 -75,-198 0,-274l6197 -6197c75,-76 198,-76 274,0 75,76 75,198 0,274l-6197 6197z"/>
     <path class="fil1" d="M17536 37457c3969,0 7563,-1609 10164,-4210 2601,-2601 4210,-6195 4210,-10165 0,-3969 -1609,-7563 -4210,-10164 -2601,-2601 -6195,-4210 -10164,-4210 -3963,0 -7551,1604 -10151,4197l-13 13 -6 6c-2598,2601 -4205,6192 -4205,10158 0,3970 1609,7564 4211,10165 2601,2601 6194,4210 10164,4210zm-10972 -25373l4377 -4377c226,-227 594,-227 821,0 226,227 226,594 0,821l-216 216c1843,-771 3867,-1197 5990,-1197 4290,0 8174,1739 10985,4550 2811,2812 4550,6696 4550,10985 0,4290 -1739,8174 -4550,10986 -2811,2811 -6695,4550 -10985,4550 -4290,0 -8174,-1739 -10985,-4550 -2812,-2812 -4551,-6696 -4551,-10986 0,-4289 1739,-8173 4551,-10985l13 -13z"/>
     <path class="fil2" d="M12305 6496l667 668c102,102 269,102 371,0l667 -668c102,-102 102,-268 0,-371l-667 -667c-102,-102 -269,-102 -371,0l-667 668c-102,102 -102,268 0,370z"/>
     <path class="fil3" d="M12639 6830l333 334c102,101 269,102 371,0l667 -668c102,-102 102,-268 0,-370l-333 -334 -1038 1038z"/>
    </g>
    <path class="fil2" d="M16769 6496l668 668c102,102 269,102 371,0l667 -668c102,-102 102,-268 0,-371l-667 -667c-102,-102 -269,-102 -371,0l-668 668c-101,102 -101,268 0,370z"/>
    <path class="fil3" d="M17103 6830l334 334c102,101 268,102 371,0l667 -668c102,-102 102,-268 0,-370l-334 -334 -1038 1038z"/>
   </g>
   <path class="fil7 str0" d="M19389 4542l338 338 124 136 130 -143 667 -667c397,-397 919,-596 1438,-596 520,0 1041,198 1438,596l90 96c192,192 389,383 578,578 281,282 463,624 545,983l482 -41c435,-31 851,-47 1245,-47 2333,0 4567,468 6613,1315 2129,882 4037,2166 5625,3755 1589,1588 2873,3496 3755,5625 847,2046 1315,4280 1315,6613 0,2332 -468,4566 -1315,6612 -882,2129 -2166,4037 -3755,5625 -1588,1589 -3496,2873 -5625,3755 -2046,847 -4280,1315 -6613,1315 -394,0 -810,-16 -1245,-47 -329,-23 -658,-57 -987,-99 -329,42 -658,76 -986,99 -435,31 -851,47 -1246,47 -395,0 -810,-16 -1245,-47 -329,-23 -658,-57 -987,-99 -329,42 -658,76 -987,99 -435,31 -851,47 -1245,47 -2333,0 -4567,-468 -6613,-1315 -2129,-882 -4037,-2166 -5625,-3755 -1588,-1588 -2873,-3496 -3755,-5625 -847,-2046 -1315,-4279 -1315,-6612 0,-2333 468,-4567 1315,-6613 882,-2129 2167,-4037 3755,-5625l4390 -4390c63,-64 130,-121 200,-173 187,-150 392,-267 605,-351 73,-388 260,-758 560,-1058l667 -667c397,-397 918,-596 1438,-596 519,0 1040,198 1438,596l89 96c192,192 390,383 578,578l124 136c41,-49 84,-97 130,-143l667 -667c397,-397 918,-596 1438,-596 519,0 1041,198 1438,596l90 96 239 240zm-1836 27452c699,699 1478,1316 2322,1835 674,414 1386,766 2125,1046 740,-280 1451,-632 2125,-1046 844,-519 1624,-1136 2323,-1835 1169,-1169 2106,-2555 2740,-4086 612,-1478 950,-3107 950,-4825 0,-1719 -338,-3348 -950,-4826 -634,-1531 -1571,-2917 -2740,-4086 -699,-699 -1479,-1316 -2323,-1835 -674,-414 -1385,-766 -2125,-1047 -745,282 -1455,632 -2123,1042 -841,516 -1618,1129 -2314,1823l-14 13 4 4 -6 6 -88 82c-1123,1146 -2028,2503 -2649,4002 -611,1476 -948,3105 -948,4822 0,1718 338,3347 950,4825 634,1531 1572,2917 2741,4086z"/>
  </g>
 </g>
</svg>
