<?xml version="1.0" encoding="UTF-8"?>
<!DOCTYPE svg PUBLIC "-//W3C//DTD SVG 1.0//EN" "http://www.w3.org/TR/2001/REC-SVG-20010904/DTD/svg10.dtd">
<!-- Creator: CorelDRAW X8 -->
<svg xmlns="http://www.w3.org/2000/svg" xml:space="preserve" width="300px" height="300px" version="1.0" style="shape-rendering:geometricPrecision; text-rendering:geometricPrecision; image-rendering:optimizeQuality; fill-rule:evenodd; clip-rule:evenodd"
viewBox="0 0 30000 30000"
 xmlns:xlink="http://www.w3.org/1999/xlink">
 <defs>
  <style type="text/css">
   <![CDATA[
    .fil0 {fill:#999999;fill-rule:nonzero}
   ]]>
  </style>
 </defs>
 <g id="Layer_x0020_1">
  <metadata id="CorelCorpID_0Corel-Layer"/>
  <path class="fil0" d="M5241 1484l-1403 0 0 2792 -649 0 0 -3365 2052 0 0 573zm4913 17869c-1225,0 -1860,-726 -1860,-1996l0 -657 1179 0 0 737c0,567 250,782 647,782 396,0 646,-193 646,-896l0 -623c0,-737 -250,-1009 -816,-1009l-420 0 0 -1134 488 0c464,0 748,-204 748,-839l0 -442c0,-714 -250,-907 -646,-907 -397,0 -647,216 -647,782l0 511 -1179 0 0 -431c0,-1270 635,-1995 1860,-1995 1224,0 1859,725 1859,1995l0 204c0,850 -272,1383 -873,1632 623,272 873,862 873,1667l0 623c0,1270 -635,1996 -1859,1996zm4217 -3345l0 1429c0,567 249,771 646,771 397,0 646,-204 646,-771l0 -1429c0,-567 -249,-782 -646,-782 -397,0 -646,215 -646,782zm-3210 6022c-27,316 -65,572 -114,770 -49,197 -112,349 -189,456l906 0 0 -1593 -569 0 -34 367zm3856 -2677c-1224,0 -1893,-726 -1893,-1996l0 -4058c0,-1338 612,-2063 1904,-2063 1225,0 1860,725 1860,1995l0 204 -1179 0 0 -284c0,-566 -250,-782 -647,-782 -442,0 -691,216 -691,975l0 1451c215,-453 601,-703 1156,-703 918,0 1383,647 1383,1814l0 1451c0,1270 -669,1996 -1893,1996zm2970 -1996l0 -657 1179 0 0 737c0,567 249,771 646,771 397,0 647,-204 647,-771l0 -1746c0,-567 -250,-782 -647,-782 -397,0 -646,215 -646,782l0 238 -1179 0 227 -4603 3287 0 0 1134 -2165 0 -102 1893c227,-374 590,-578 1088,-578 919,0 1384,646 1384,1814l0 1768c0,1270 -635,1996 -1860,1996 -1224,0 -1859,-726 -1859,-1996zm7315 2538c-491,-4430 -2909,-5266 -49,-10302l-3321 -3177c-1992,1543 -4688,1716 -6932,626 -2244,1090 -4940,917 -6932,-626l-3321 3177c2860,5036 442,5872 -49,10302 -32,1316 353,2503 1156,3562 2558,3367 8110,3906 9146,5632 1036,-1726 6588,-2265 9146,-5632 803,-1059 1188,-2246 1156,-3562zm-15169 3361l85 0c66,-3 124,-22 174,-58 50,-37 94,-103 132,-201 39,-98 73,-232 103,-403 29,-172 56,-392 81,-662l61 -681 1464 0 0 2005 358 0 0 1014 -439 0 0 -602 -1576 0 0 602 -443 0 0 -1014zm2781 412l0 -2417 470 0 0 977 1096 0 0 -977 466 0 0 2417 -466 0 0 -1032 -1096 0 0 1032 -470 0zm2556 -2417l1648 0 0 412 -1178 0 0 582 1018 0 0 381 -1018 0 0 630 1209 0 0 412 -1679 0 0 -2417zm3360 -543c59,-42 94,-95 106,-158l279 0c0,70 -16,134 -46,192 -31,58 -72,107 -124,148 -53,41 -116,72 -189,94 -74,21 -155,32 -244,32 -88,0 -170,-11 -245,-32 -75,-22 -138,-53 -190,-94 -53,-41 -94,-90 -125,-148 -30,-58 -46,-122 -46,-192l279 0c0,29 9,57 26,85 17,27 41,51 71,71 31,21 66,36 104,48 39,11 81,17 126,17 87,0 159,-21 218,-63zm-1304 2960l0 -2417 467 0 0 1695 1232 -1695 357 0 0 2417 -466 0 0 -1658 -1215 1658 -375 0zm-11384 -22757l578 0 1280 3365 -673 0 -313 -839 -1175 0 -309 839 -673 0 1285 -3365zm754 2066l-465 -1322 -483 1322 948 0zm1488 1299l0 -3365 1427 0c155,0 298,32 429,97 131,64 244,150 339,256 95,105 169,226 223,360 54,134 81,269 81,405 0,142 -26,281 -76,415 -51,134 -122,254 -214,358 -91,104 -202,188 -331,251 -130,63 -272,95 -427,95l-797 0 0 1128 -654 0zm654 -1702l759 0c120,0 220,-49 301,-146 81,-98 121,-231 121,-399 0,-85 -13,-162 -38,-230 -25,-68 -59,-125 -100,-173 -41,-47 -89,-83 -144,-106 -55,-24 -112,-36 -168,-36l-731 0 0 1090zm3044 -1663l578 0 1280 3365 -673 0 -313 -839 -1175 0 -309 839 -673 0 1285 -3365zm754 2066l-465 -1322 -483 1322 948 0zm4318 -2066l0 3365 -649 0 0 -1436 -1526 0 0 1436 -655 0 0 -3365 655 0 0 1360 1526 0 0 -1360 649 0zm3234 573l-1076 0 0 2792 -650 0 0 -2792 -1076 0 0 -573 2802 0 0 573zm1080 1787l1717 -2360 497 0 0 3365 -649 0 0 -2308 -1692 2308 -522 0 0 -3365 649 0 0 2360zm4694 1005l0 -1246 -536 0 -758 1246 -721 0 825 -1327c-193,-79 -348,-206 -465,-379 -117,-174 -175,-375 -175,-602 0,-143 27,-277 81,-403 53,-127 127,-239 222,-337 95,-98 208,-175 339,-232 131,-57 274,-85 429,-85l1408 0 0 3365 -649 0zm0 -2806l-688 0c-63,0 -123,12 -180,35 -57,24 -108,57 -154,100 -46,43 -82,95 -109,156 -27,62 -40,131 -40,207 0,151 45,273 135,365 90,91 201,137 334,137l702 0 0 -1000z"/>
 </g>
</svg>
