<?xml version="1.0" encoding="UTF-8"?>
<!DOCTYPE svg PUBLIC "-//W3C//DTD SVG 1.0//EN" "http://www.w3.org/TR/2001/REC-SVG-20010904/DTD/svg10.dtd">
<!-- Creator: CorelDRAW X8 -->
<svg xmlns="http://www.w3.org/2000/svg" xml:space="preserve" width="41px" height="41px" version="1.0" style="shape-rendering:geometricPrecision; text-rendering:geometricPrecision; image-rendering:optimizeQuality; fill-rule:evenodd; clip-rule:evenodd"
viewBox="0 0 4100 4100"
 xmlns:xlink="http://www.w3.org/1999/xlink">
 <defs>
  <style type="text/css">
   <![CDATA[
    .fil0 {fill:white;fill-rule:nonzero}
   ]]>
  </style>
 </defs>
 <g id="Layer_x0020_1">
  <metadata id="CorelCorpID_0Corel-Layer"/>
  <path class="fil0" d="M2050 4007c541,0 1030,-219 1384,-573 354,-354 573,-843 573,-1384 0,-541 -219,-1030 -573,-1384 -354,-354 -843,-573 -1384,-573 -541,0 -1030,219 -1384,573 -354,354 -574,843 -574,1384 0,541 220,1030 574,1384 354,354 843,573 1384,573zm0 -2695c240,0 269,1 364,5 87,4 135,19 167,31 42,17 72,36 103,68 32,31 51,61 68,103 12,32 27,80 31,167 4,95 5,124 5,364 0,240 -1,269 -5,364 -4,87 -19,135 -31,167 -17,42 -36,72 -68,103 -31,32 -61,51 -103,68 -32,12 -80,27 -167,31 -95,4 -124,5 -364,5 -240,0 -269,-1 -364,-5 -87,-4 -135,-19 -167,-31 -42,-17 -72,-36 -103,-68 -32,-31 -51,-61 -68,-103 -12,-32 -27,-80 -31,-167 -4,-95 -5,-124 -5,-364 0,-240 1,-269 5,-364 4,-87 19,-135 31,-167 17,-42 36,-72 68,-103 31,-32 61,-51 103,-68 32,-12 80,-27 167,-31 95,-4 124,-5 364,-5zm900 760l0 -44c0,-224 -1,-256 -5,-349 -5,-96 -20,-161 -42,-219 -23,-59 -54,-109 -104,-159 -50,-50 -100,-81 -159,-104 -58,-22 -123,-37 -219,-42 -93,-4 -125,-5 -349,-5l-44 0c-224,0 -256,1 -349,5 -96,5 -161,20 -219,42 -59,23 -109,54 -159,104 -50,50 -81,100 -104,159 -22,58 -37,123 -42,219 -4,96 -5,127 -5,371 0,244 1,275 5,371 5,96 20,161 42,219 23,59 54,109 104,159 50,50 100,81 159,104 58,22 123,37 219,42 96,4 127,5 371,5 244,0 275,-1 371,-5 96,-5 161,-20 219,-42 59,-23 109,-54 159,-104 50,-50 81,-100 104,-159 22,-58 37,-123 42,-219 4,-93 5,-125 5,-349zm-900 -484c-255,0 -462,207 -462,462 0,255 207,462 462,462 255,0 462,-207 462,-462 0,-255 -207,-462 -462,-462zm0 762c-166,0 -300,-134 -300,-300 0,-166 134,-300 300,-300 166,0 300,134 300,300 0,166 -134,300 -300,300zm588 -780c0,59 -48,108 -108,108 -59,0 -108,-49 -108,-108 0,-60 49,-108 108,-108 60,0 108,48 108,108zm856 1924c-369,370 -880,599 -1444,599 -564,0 -1075,-229 -1444,-599 -370,-369 -599,-880 -599,-1444 0,-564 229,-1075 599,-1444 369,-370 880,-599 1444,-599 564,0 1075,229 1444,599 370,369 599,880 599,1444 0,564 -229,1075 -599,1444z"/>
 </g>
</svg>
