<?xml version="1.0" encoding="UTF-8"?>
<!DOCTYPE svg PUBLIC "-//W3C//DTD SVG 1.0//EN" "http://www.w3.org/TR/2001/REC-SVG-20010904/DTD/svg10.dtd">
<!-- Creator: CorelDRAW X8 -->
<svg xmlns="http://www.w3.org/2000/svg" xml:space="preserve" width="20px" height="20px" version="1.0" style="shape-rendering:geometricPrecision; text-rendering:geometricPrecision; image-rendering:optimizeQuality; fill-rule:evenodd; clip-rule:evenodd"
viewBox="0 0 2000 2000"
 xmlns:xlink="http://www.w3.org/1999/xlink">
 <defs>
  <style type="text/css">
   <![CDATA[
    .fil0 {fill:#A88D69;fill-rule:nonzero}
   ]]>
  </style>
 </defs>
 <g id="Layer_x0020_1">
  <metadata id="CorelCorpID_0Corel-Layer"/>
  <g id="_2256509514048">
   <path class="fil0" d="M573 853c1,0 1,0 1,0l212 0 -151 -151c-17,-16 -39,-26 -63,-26 -24,0 -46,10 -63,26 -17,17 -26,39 -26,63 0,23 9,45 26,62 17,17 39,26 63,26l1 0z"/>
   <path class="fil0" d="M1428 853c24,0 46,-9 63,-26 17,-17 26,-39 26,-62 0,-24 -9,-46 -26,-63 -17,-16 -39,-26 -63,-26 -24,0 -46,10 -63,26l-151 151 211 0c1,0 1,0 2,0l1 0z"/>
   <path class="fil0" d="M536 1590c-20,0 -40,-7 -56,-21 -38,-31 -43,-87 -12,-124l347 -415 -811 0 0 882c0,49 40,88 88,88l820 0 0 -811 -308 369c-18,21 -43,32 -68,32z"/>
   <path class="fil0" d="M1908 0l-820 0 0 729 152 -152c50,-49 117,-77 188,-77 71,0 137,28 187,77 51,50 78,117 78,188 0,30 -5,60 -15,88l318 0 0 -765c0,-48 -40,-88 -88,-88z"/>
   <path class="fil0" d="M1819 1030l-634 0 347 415c31,37 26,93 -12,124 -16,14 -36,21 -56,21 -25,0 -50,-11 -68,-32l-308 -369 0 811 820 0c48,0 88,-39 88,-88l0 -882 -177 0z"/>
   <path class="fil0" d="M4 88l0 765 318 0c-10,-28 -15,-58 -15,-88 0,-71 27,-138 78,-188 50,-49 116,-77 187,-77 71,0 138,28 188,77l152 152 0 -729 -820 0c-48,0 -88,40 -88,88z"/>
  </g>
 </g>
</svg>
