<?xml version="1.0" encoding="UTF-8"?>
<!DOCTYPE svg PUBLIC "-//W3C//DTD SVG 1.0//EN" "http://www.w3.org/TR/2001/REC-SVG-20010904/DTD/svg10.dtd">
<!-- Creator: CorelDRAW X8 -->
<svg xmlns="http://www.w3.org/2000/svg" xml:space="preserve" width="18px" height="32px" version="1.0" style="shape-rendering:geometricPrecision; text-rendering:geometricPrecision; image-rendering:optimizeQuality; fill-rule:evenodd; clip-rule:evenodd"
viewBox="0 0 1800 3200"
 xmlns:xlink="http://www.w3.org/1999/xlink">
 <defs>
  <style type="text/css">
   <![CDATA[
    .fil1 {fill:#999999}
    .fil0 {fill:#999999;fill-rule:nonzero}
   ]]>
  </style>
 </defs>
 <g id="Layer_x0020_1">
  <metadata id="CorelCorpID_0Corel-Layer"/>
  <g id="_2876706556896">
   <path class="fil0" d="M244 2343l1312 0 0 -2125 -1312 0 0 2125zm1430 237l-1548 0c-65,0 -118,-53 -118,-119l0 -2361c0,-65 53,-118 118,-118l1548 0c65,0 118,53 118,118l0 2361c0,66 -53,119 -118,119z"/>
   <rect class="fil1" transform="matrix(0.597876 -0.380399 -0 0.686853 669.347 739.045)" width="1680" height="3438"/>
   <path class="fil0" d="M787 2886l769 -489 0 -2082 -769 488 0 2083zm950 -325l-996 633c-20,15 -45,25 -72,25 -65,0 -118,-53 -118,-119l0 -2361c1,-39 20,-77 55,-99l996 -634c20,-15 45,-24 72,-24 65,0 118,53 118,118l0 2361c-1,39 -20,77 -55,100z"/>
  </g>
 </g>
</svg>
