<?xml version="1.0" encoding="UTF-8"?>
<!DOCTYPE svg PUBLIC "-//W3C//DTD SVG 1.0//EN" "http://www.w3.org/TR/2001/REC-SVG-20010904/DTD/svg10.dtd">
<!-- Creator: CorelDRAW X8 -->
<svg xmlns="http://www.w3.org/2000/svg" xml:space="preserve" width="30px" height="30px" version="1.0" style="shape-rendering:geometricPrecision; text-rendering:geometricPrecision; image-rendering:optimizeQuality; fill-rule:evenodd; clip-rule:evenodd"
viewBox="0 0 3000 3000"
 xmlns:xlink="http://www.w3.org/1999/xlink">
 <defs>
  <style type="text/css">
   <![CDATA[
    .fil0 {fill:#A88D69;fill-rule:nonzero}
   ]]>
  </style>
 </defs>
 <g id="Layer_x0020_1">
  <metadata id="CorelCorpID_0Corel-Layer"/>
  <g id="_2424620354688">
   <path class="fil0" d="M450 1029l353 0c74,0 135,-60 135,-135 0,-54 43,-97 97,-97l930 0c54,0 98,43 98,97 0,75 60,135 135,135l352 0c75,0 135,-60 135,-135l0 -262c0,-211 -171,-382 -382,-382l-1606 0c-211,0 -382,171 -382,382l0 262c0,75 60,135 135,135z"/>
   <path class="fil0" d="M2789 2401l-171 -603c-78,-276 -317,-470 -597,-499l0 -160c0,-101 -82,-184 -183,-184 -102,0 -184,83 -184,184l0 154 -308 0 0 -154c0,-101 -82,-184 -183,-184 -102,0 -184,83 -184,184l0 160c-280,29 -519,223 -597,499l-171 603c-24,82 -7,171 45,240 51,69 133,109 219,109l2050 0c86,0 167,-40 219,-109 52,-69 69,-158 45,-240zm-1358 3c0,26 -21,48 -48,48l-243 0c-26,0 -48,-22 -48,-48l0 -243c0,-27 22,-48 48,-48l243 0c27,0 48,21 48,48l0 243zm0 -477c0,27 -21,48 -48,48l-243 0c-26,0 -47,-21 -47,-48l0 -243c0,-26 21,-48 47,-48l243 0c27,0 48,22 48,48l0 243zm477 477c0,26 -22,48 -48,48l-243 0c-27,0 -48,-22 -48,-48l0 -243c0,-26 21,-48 48,-48l243 0c26,0 48,22 48,48l0 243zm0 -477c0,27 -22,48 -48,48l-243 0c-26,0 -48,-21 -48,-48l0 -243c0,-26 22,-47 48,-47l243 0c26,0 48,21 48,47l0 243z"/>
  </g>
 </g>
</svg>
