<?xml version="1.0" encoding="UTF-8"?>
<!DOCTYPE svg PUBLIC "-//W3C//DTD SVG 1.0//EN" "http://www.w3.org/TR/2001/REC-SVG-20010904/DTD/svg10.dtd">
<!-- Creator: CorelDRAW X8 -->
<svg xmlns="http://www.w3.org/2000/svg" xml:space="preserve" width="45px" height="45px" version="1.0" style="shape-rendering:geometricPrecision; text-rendering:geometricPrecision; image-rendering:optimizeQuality; fill-rule:evenodd; clip-rule:evenodd"
viewBox="0 0 4500 4500"
 xmlns:xlink="http://www.w3.org/1999/xlink">
 <defs>
  <style type="text/css">
   <![CDATA[
    .fil0 {fill:#A88D69}
    .fil1 {fill:white;fill-rule:nonzero}
   ]]>
  </style>
 </defs>
 <g id="Layer_x0020_1">
  <metadata id="CorelCorpID_0Corel-Layer"/>
  <g id="_2148285810864">
   <circle class="fil0" cx="2250" cy="2250" r="2250"/>
   <g>
    <path class="fil1" d="M2250 1225c334,0 373,1 505,7 122,6 188,26 232,44 59,22 100,49 144,93 44,44 71,85 93,144 18,44 38,110 44,232 6,132 7,171 7,505 0,334 -1,373 -7,505 -6,122 -26,188 -44,232 -22,59 -49,100 -93,144 -44,44 -85,71 -144,93 -44,18 -110,38 -232,44 -132,6 -171,7 -505,7 -334,0 -373,-1 -505,-7 -122,-6 -188,-26 -232,-44 -59,-22 -100,-49 -144,-93 -44,-44 -71,-85 -93,-144 -18,-44 -38,-110 -44,-232 -6,-132 -7,-171 -7,-505 0,-334 1,-373 7,-505 6,-122 26,-188 44,-232 22,-59 49,-100 93,-144 44,-44 85,-71 144,-93 44,-18 110,-38 232,-44 132,-6 171,-7 505,-7zm1250 1056l0 -62c0,-311 -2,-355 -7,-484 -7,-133 -28,-224 -59,-304 -32,-82 -74,-152 -144,-221 -69,-70 -139,-112 -221,-144 -80,-31 -171,-52 -304,-59 -129,-5 -173,-7 -484,-7l-62 0c-311,0 -355,2 -484,7 -133,7 -224,28 -304,59 -82,32 -152,74 -221,144 -70,69 -112,139 -144,221 -31,80 -52,171 -59,304 -6,133 -7,176 -7,515 0,339 1,382 7,515 7,133 28,224 59,304 32,82 74,152 144,221 69,70 139,112 221,144 80,31 171,52 304,59 133,6 176,7 515,7 339,0 382,-1 515,-7 133,-7 224,-28 304,-59 82,-32 152,-74 221,-144 70,-69 112,-139 144,-221 31,-80 52,-171 59,-304 5,-129 7,-173 7,-484z"/>
    <path class="fil1" d="M2250 1608c-354,0 -642,287 -642,642 0,355 288,642 642,642 355,0 642,-287 642,-642 0,-355 -287,-642 -642,-642zm0 1059c-230,0 -417,-187 -417,-417 0,-230 187,-417 417,-417 230,0 417,187 417,417 0,230 -187,417 -417,417z"/>
    <path class="fil1" d="M3067 1583c0,83 -67,150 -150,150 -83,0 -150,-67 -150,-150 0,-83 67,-150 150,-150 83,0 150,67 150,150z"/>
   </g>
  </g>
 </g>
</svg>
