<?xml version="1.0" encoding="UTF-8"?>
<!DOCTYPE svg PUBLIC "-//W3C//DTD SVG 1.0//EN" "http://www.w3.org/TR/2001/REC-SVG-20010904/DTD/svg10.dtd">
<!-- Creator: CorelDRAW X8 -->
<svg xmlns="http://www.w3.org/2000/svg" xml:space="preserve" width="45px" height="45px" version="1.0" style="shape-rendering:geometricPrecision; text-rendering:geometricPrecision; image-rendering:optimizeQuality; fill-rule:evenodd; clip-rule:evenodd"
viewBox="0 0 4500 4500"
 xmlns:xlink="http://www.w3.org/1999/xlink">
 <defs>
  <style type="text/css">
   <![CDATA[
    .fil0 {fill:#A88D69}
    .fil1 {fill:white;fill-rule:nonzero}
   ]]>
  </style>
 </defs>
 <g id="Layer_x0020_1">
  <metadata id="CorelCorpID_0Corel-Layer"/>
  <circle class="fil0" cx="2250" cy="2250" r="2250"/>
  <path class="fil1" d="M1992 2574l0 -702 675 352 -675 350zm265 -1203l-14 0c-63,0 -542,2 -868,25 -49,6 -156,6 -251,106 -75,76 -99,248 -99,248 0,0 -25,202 -25,405l0 189c0,203 25,405 25,405 0,0 24,172 99,248 95,100 220,97 276,107 200,19 850,25 850,25 0,0 525,-1 875,-26 49,-6 156,-6 251,-106 75,-76 99,-248 99,-248 0,0 25,-202 25,-405l0 -189c0,-203 -25,-405 -25,-405 0,0 -24,-172 -99,-248 -95,-100 -202,-100 -251,-106 -326,-23 -805,-25 -868,-25z"/>
 </g>
</svg>
