<?xml version="1.0" encoding="UTF-8"?>
<!DOCTYPE svg PUBLIC "-//W3C//DTD SVG 1.0//EN" "http://www.w3.org/TR/2001/REC-SVG-20010904/DTD/svg10.dtd">
<!-- Creator: CorelDRAW X8 -->
<svg xmlns="http://www.w3.org/2000/svg" xml:space="preserve" width="45px" height="45px" version="1.0" style="shape-rendering:geometricPrecision; text-rendering:geometricPrecision; image-rendering:optimizeQuality; fill-rule:evenodd; clip-rule:evenodd"
viewBox="0 0 4500 4500"
 xmlns:xlink="http://www.w3.org/1999/xlink">
 <defs>
  <style type="text/css">
   <![CDATA[
    .fil0 {fill:#A88D69}
    .fil1 {fill:white}
   ]]>
  </style>
 </defs>
 <g id="Layer_x0020_1">
  <metadata id="CorelCorpID_0Corel-Layer"/>
  <g id="_2148285833296">
   <circle class="fil0" cx="2250" cy="2250" r="2250"/>
   <path class="fil1" d="M2223 2957l150 0c0,0 45,-5 68,-30 21,-23 20,-65 20,-65 0,0 -3,-201 90,-230 92,-29 210,193 335,279 94,65 166,51 166,51l334 -5c0,0 175,-11 92,-148 -7,-11 -48,-102 -248,-287 -210,-195 -182,-163 70,-499 154,-205 215,-330 196,-383 -18,-51 -131,-38 -131,-38l-376 2c0,0 -28,-3 -48,9 -21,12 -34,40 -34,40 0,0 -59,159 -139,293 -167,285 -234,300 -261,282 -64,-41 -48,-165 -48,-253 0,-276 42,-391 -81,-420 -41,-10 -71,-17 -176,-18 -134,-1 -248,1 -312,32 -43,21 -75,68 -55,70 24,4 81,16 110,56 39,53 38,170 38,170 0,0 22,325 -52,365 -51,27 -120,-29 -269,-287 -77,-132 -135,-278 -135,-278 0,0 -11,-27 -31,-42 -24,-18 -57,-23 -57,-23l-358 2c0,0 -53,2 -73,25 -17,21 -1,64 -1,64 0,0 279,654 596,984 290,302 620,282 620,282l0 0z"/>
  </g>
 </g>
</svg>
