<?xml version="1.0" encoding="UTF-8"?>
<!DOCTYPE svg PUBLIC "-//W3C//DTD SVG 1.0//EN" "http://www.w3.org/TR/2001/REC-SVG-20010904/DTD/svg10.dtd">
<!-- Creator: CorelDRAW X8 -->
<svg xmlns="http://www.w3.org/2000/svg" xml:space="preserve" width="32px" height="32px" version="1.0" style="shape-rendering:geometricPrecision; text-rendering:geometricPrecision; image-rendering:optimizeQuality; fill-rule:evenodd; clip-rule:evenodd"
viewBox="0 0 3200 3200"
 xmlns:xlink="http://www.w3.org/1999/xlink">
 <defs>
  <style type="text/css">
   <![CDATA[
    .fil0 {fill:#806B50;fill-rule:nonzero}
   ]]>
  </style>
 </defs>
 <g id="Layer_x0020_1">
  <metadata id="CorelCorpID_0Corel-Layer"/>
  <path class="fil0" d="M137 2885l744 -774c-192,-228 -297,-514 -297,-812 0,-696 567,-1262 1263,-1262 696,0 1262,566 1262,1262 0,696 -566,1263 -1262,1263 -261,0 -510,-79 -723,-229l-750 780c-31,33 -74,51 -119,51 -43,0 -83,-17 -114,-47 -66,-63 -67,-167 -4,-232zm1710 -2519c-514,0 -933,419 -933,933 0,515 419,933 933,933 514,0 933,-418 933,-933 0,-514 -419,-933 -933,-933z"/>
 </g>
</svg>
