<?xml version="1.0" encoding="UTF-8"?>
<!DOCTYPE svg PUBLIC "-//W3C//DTD SVG 1.0//EN" "http://www.w3.org/TR/2001/REC-SVG-20010904/DTD/svg10.dtd">
<!-- Creator: CorelDRAW X8 -->
<svg xmlns="http://www.w3.org/2000/svg" xml:space="preserve" width="79px" height="40px" version="1.0" style="shape-rendering:geometricPrecision; text-rendering:geometricPrecision; image-rendering:optimizeQuality; fill-rule:evenodd; clip-rule:evenodd"
viewBox="0 0 7900 4000"
 xmlns:xlink="http://www.w3.org/1999/xlink">
 <defs>
  <style type="text/css">
   <![CDATA[
    .fil2 {fill:#49423D}
    .fil1 {fill:white;fill-rule:nonzero}
    .fil0 {fill:#5C534C;fill-opacity:0.749020}
   ]]>
  </style>
 </defs>
 <g id="Layer_x0020_1">
  <metadata id="CorelCorpID_0Corel-Layer"/>
  <g id="_1472548439200">
   <path class="fil0" d="M5053 4000l2868 0 0 0 -728 -1457 728 -1458 -1783 0 0 -1085 -6159 0 0 2915 5074 0 0 1085z"/>
   <path class="fil1" d="M750 784l254 1345 221 0 251 -1345 -138 0 -217 1170 -219 -1170 -152 0zm842 0l0 1345 149 0 0 -1345 -149 0zm436 257l344 1088 155 0 0 -1345 -132 0 0 972 -312 -972 -190 0 0 1345 135 0 0 -1088zm999 1088l0 -1209 247 0 0 -136 -645 0 0 136 248 0 0 1209 150 0zm770 -271l52 271 150 0 -258 -1345 -217 0 -257 1345 138 0 52 -271 340 0zm-173 -905l152 776 -300 0 148 -776zm782 -182c-206,0 -302,134 -302,338l0 695c0,204 96,338 302,338 207,0 303,-134 303,-338l0 -396 -280 0 0 135 138 0 0 269c0,121 -48,194 -157,194 -108,0 -158,-73 -158,-194l0 -711c0,-121 50,-194 158,-194 109,0 157,73 157,194l0 123 142 0 0 -115c0,-204 -96,-338 -303,-338zm595 609l0 -460 404 0 0 -136 -553 0 0 1345 553 0 0 -137 -404 0 0 -478 329 0 0 -134 -329 0z"/>
   <path class="fil2" d="M5053 2915l1085 0 -1085 1085 0 -1085z"/>
  </g>
 </g>
</svg>
