<?xml version="1.0" encoding="UTF-8"?>
<!DOCTYPE svg PUBLIC "-//W3C//DTD SVG 1.0//EN" "http://www.w3.org/TR/2001/REC-SVG-20010904/DTD/svg10.dtd">
<!-- Creator: CorelDRAW X8 -->
<svg xmlns="http://www.w3.org/2000/svg" xml:space="preserve" width="50px" height="39px" version="1.0" style="shape-rendering:geometricPrecision; text-rendering:geometricPrecision; image-rendering:optimizeQuality; fill-rule:evenodd; clip-rule:evenodd"
viewBox="0 0 5000 3900"
 xmlns:xlink="http://www.w3.org/1999/xlink">
 <defs>
  <style type="text/css">
   <![CDATA[
    .fil0 {fill:#0099DF;fill-rule:nonzero}
    .fil3 {fill:#110F0D;fill-rule:nonzero}
    .fil4 {fill:#242021;fill-rule:nonzero}
    .fil1 {fill:#6C6BBD;fill-rule:nonzero}
    .fil2 {fill:#D32011;fill-rule:nonzero}
   ]]>
  </style>
 </defs>
 <g id="Layer_x0020_1">
  <metadata id="CorelCorpID_0Corel-Layer"/>
  <g id="_1353577151856">
   <path class="fil0" d="M4952 2508l0 -60 -16 0 -18 41 -18 -41 -16 0 0 60 12 0 0 -45 16 39 12 0 17 -39 0 45 11 0zm-99 0l0 -50 20 0 0 -10 -51 0 0 10 20 0 0 50 11 0z"/>
   <path class="fil1" d="M3176 2766l-1352 0 0 -2430 1352 0 0 2430z"/>
   <path class="fil2" d="M1910 1551c0,-493 231,-932 590,-1215 -263,-207 -594,-331 -955,-331 -853,0 -1545,692 -1545,1546 0,853 692,1545 1545,1545 361,0 692,-124 955,-330 -359,-283 -590,-723 -590,-1215z"/>
   <path class="fil0" d="M5000 1551c0,853 -692,1545 -1545,1545 -360,0 -692,-124 -955,-330 360,-283 590,-723 590,-1215 0,-493 -230,-932 -590,-1215 263,-207 595,-331 955,-331 853,0 1545,692 1545,1546z"/>
   <g>
    <path class="fil3" d="M3634 3452c18,0 43,4 63,11l-27 84c-19,-7 -38,-10 -56,-10 -59,0 -88,38 -88,106l0 230 -89 0 0 -411 88 0 0 50c24,-36 57,-60 109,-60zm-330 92l-146 0 0 185c0,42 14,69 59,69 23,0 52,-8 79,-23l26 76c-29,20 -73,32 -112,32 -105,0 -142,-57 -142,-152l0 -187 -84 0 0 -82 84 0 0 -124 90 0 0 124 146 0 0 82zm-1143 88c10,-60 46,-100 109,-100 58,0 95,36 104,100l-213 0zm306 36c-1,-128 -80,-216 -195,-216 -120,0 -204,88 -204,216 0,130 87,215 210,215 62,0 118,-15 168,-58l-44 -66c-34,28 -78,43 -119,43 -57,0 -110,-26 -123,-100l305 0c1,-11 2,-23 2,-34l0 0zm392 -101c-25,-15 -75,-35 -128,-35 -49,0 -78,18 -78,48 0,27 31,35 70,40l42 6c89,13 143,51 143,123 0,78 -69,134 -187,134 -67,0 -129,-17 -178,-53l42 -70c30,23 75,43 137,43 61,0 93,-18 93,-50 0,-23 -23,-36 -72,-43l-42 -5c-92,-13 -141,-55 -141,-122 0,-81 67,-131 170,-131 66,0 125,15 168,43l-39 72zm1101 -30c-19,0 -36,3 -51,9 -16,7 -30,16 -41,28 -12,11 -21,25 -27,41 -7,17 -10,34 -10,54 0,19 3,37 10,53 6,17 15,31 27,42 11,12 25,21 41,27 15,7 32,10 51,10 18,0 35,-3 51,-10 16,-6 30,-15 41,-27 12,-11 21,-25 28,-42 6,-16 9,-34 9,-53 0,-20 -3,-37 -9,-54 -7,-16 -16,-30 -28,-41 -11,-12 -25,-21 -41,-28 -16,-6 -33,-9 -51,-9l0 0zm0 -85c32,0 61,6 88,17 27,11 51,26 71,45 19,20 35,43 46,69 11,26 17,55 17,86 0,31 -6,60 -17,86 -11,26 -27,49 -46,69 -20,19 -44,34 -71,45 -27,11 -56,17 -88,17 -32,0 -61,-6 -89,-17 -27,-11 -50,-26 -70,-45 -19,-20 -35,-43 -46,-69 -11,-26 -17,-55 -17,-86 0,-31 6,-60 17,-86 11,-26 27,-49 46,-69 20,-19 43,-34 70,-45 28,-11 57,-17 89,-17zm-2320 216c0,-73 47,-132 124,-132 74,0 124,57 124,132 0,74 -50,131 -124,131 -77,0 -124,-59 -124,-131zm332 0l0 -206 -89 0 0 50c-29,-37 -71,-60 -130,-60 -115,0 -205,90 -205,216 0,125 90,215 205,215 59,0 101,-23 130,-60l0 50 89 0 0 -205zm-503 205l0 -258c0,-97 -62,-162 -161,-163 -53,-1 -107,15 -145,73 -28,-45 -73,-73 -135,-73 -44,0 -87,13 -120,61l0 -51 -90 0 0 411 91 0 0 -228c0,-71 39,-109 100,-109 59,0 89,39 89,108l0 229 90 0 0 -228c0,-71 42,-109 101,-109 61,0 90,39 90,108l0 229 90 0 0 0z"/>
   </g>
   <g>
    <path class="fil4" d="M4282 3842l0 10 10 0c2,0 3,-1 5,-1 1,-1 2,-2 2,-4 0,-2 -1,-3 -2,-4 -2,-1 -3,-1 -5,-1l-10 0zm10 -7c5,0 8,1 11,3 3,2 4,5 4,9 0,3 -1,6 -3,8 -2,2 -5,3 -9,3l12 15 -10 0 -11 -15 -4 0 0 15 -8 0 0 -38 18 0zm-3 50c5,0 9,0 13,-2 3,-2 7,-4 10,-7 2,-3 5,-6 6,-10 2,-4 3,-8 3,-12 0,-5 -1,-9 -3,-13 -1,-3 -4,-7 -6,-10 -3,-3 -7,-5 -10,-6 -4,-2 -8,-3 -13,-3 -4,0 -8,1 -12,3 -4,1 -8,3 -10,6 -3,3 -6,7 -7,10 -2,4 -3,8 -3,13 0,4 1,8 3,12 1,4 4,7 7,10 2,3 6,5 10,7 4,2 8,2 12,2zm0 -72c6,0 11,1 16,3 5,2 10,5 14,9 3,4 6,8 8,13 3,5 4,10 4,16 0,5 -1,11 -4,16 -2,4 -5,9 -8,13 -4,3 -9,6 -14,8 -5,3 -10,4 -16,4 -6,0 -11,-1 -16,-4 -5,-2 -10,-5 -13,-8 -4,-4 -7,-9 -9,-13 -2,-5 -4,-11 -4,-16 0,-6 2,-11 4,-16 2,-5 5,-9 9,-13 3,-4 8,-7 13,-9 5,-2 10,-3 16,-3l0 0zm0 0l0 0z"/>
   </g>
  </g>
 </g>
</svg>
